<?xml version="1.0" encoding="utf-8"?>
<!DOCTYPE eagle SYSTEM "eagle.dtd">
<eagle version="9.5.1">
<drawing>
<settings>
<setting alwaysvectorfont="no"/>
<setting verticaltext="up"/>
</settings>
<grid distance="50" unitdist="mil" unit="mil" style="lines" multiple="1" display="no" altdistance="5" altunitdist="mil" altunit="mil"/>
<layers>
<layer number="1" name="Top" color="4" fill="1" visible="yes" active="yes"/>
<layer number="2" name="Route2" color="16" fill="1" visible="no" active="no"/>
<layer number="3" name="Route3" color="17" fill="1" visible="no" active="no"/>
<layer number="4" name="Route4" color="18" fill="1" visible="no" active="no"/>
<layer number="5" name="Route5" color="19" fill="1" visible="no" active="no"/>
<layer number="6" name="Route6" color="25" fill="1" visible="no" active="no"/>
<layer number="7" name="Route7" color="26" fill="1" visible="no" active="no"/>
<layer number="8" name="Route8" color="27" fill="1" visible="no" active="no"/>
<layer number="9" name="Route9" color="28" fill="1" visible="no" active="no"/>
<layer number="10" name="Route10" color="29" fill="1" visible="no" active="no"/>
<layer number="11" name="Route11" color="30" fill="1" visible="no" active="no"/>
<layer number="12" name="Route12" color="20" fill="1" visible="no" active="no"/>
<layer number="13" name="Route13" color="21" fill="1" visible="no" active="no"/>
<layer number="14" name="Route14" color="22" fill="1" visible="no" active="no"/>
<layer number="15" name="Route15" color="23" fill="1" visible="no" active="no"/>
<layer number="16" name="Bottom" color="1" fill="1" visible="yes" active="yes"/>
<layer number="17" name="Pads" color="2" fill="1" visible="yes" active="yes"/>
<layer number="18" name="Vias" color="2" fill="1" visible="yes" active="yes"/>
<layer number="19" name="Unrouted" color="6" fill="1" visible="yes" active="yes"/>
<layer number="20" name="Dimension" color="24" fill="1" visible="yes" active="yes"/>
<layer number="21" name="tPlace" color="7" fill="1" visible="yes" active="yes"/>
<layer number="22" name="bPlace" color="7" fill="1" visible="yes" active="yes"/>
<layer number="23" name="tOrigins" color="15" fill="1" visible="yes" active="yes"/>
<layer number="24" name="bOrigins" color="15" fill="1" visible="yes" active="yes"/>
<layer number="25" name="tNames" color="7" fill="1" visible="yes" active="yes"/>
<layer number="26" name="bNames" color="7" fill="1" visible="yes" active="yes"/>
<layer number="27" name="tValues" color="7" fill="1" visible="yes" active="yes"/>
<layer number="28" name="bValues" color="7" fill="1" visible="no" active="yes"/>
<layer number="29" name="tStop" color="7" fill="3" visible="no" active="yes"/>
<layer number="30" name="bStop" color="7" fill="6" visible="no" active="yes"/>
<layer number="31" name="tCream" color="7" fill="4" visible="no" active="yes"/>
<layer number="32" name="bCream" color="7" fill="5" visible="no" active="yes"/>
<layer number="33" name="tFinish" color="6" fill="3" visible="no" active="yes"/>
<layer number="34" name="bFinish" color="6" fill="6" visible="no" active="yes"/>
<layer number="35" name="tGlue" color="7" fill="4" visible="no" active="yes"/>
<layer number="36" name="bGlue" color="7" fill="5" visible="no" active="yes"/>
<layer number="37" name="tTest" color="7" fill="1" visible="no" active="yes"/>
<layer number="38" name="bTest" color="7" fill="1" visible="no" active="yes"/>
<layer number="39" name="tKeepout" color="4" fill="11" visible="yes" active="yes"/>
<layer number="40" name="bKeepout" color="1" fill="11" visible="yes" active="yes"/>
<layer number="41" name="tRestrict" color="4" fill="10" visible="yes" active="yes"/>
<layer number="42" name="bRestrict" color="1" fill="10" visible="yes" active="yes"/>
<layer number="43" name="vRestrict" color="2" fill="10" visible="no" active="yes"/>
<layer number="44" name="Drills" color="7" fill="1" visible="no" active="yes"/>
<layer number="45" name="Holes" color="7" fill="1" visible="yes" active="yes"/>
<layer number="46" name="Milling" color="3" fill="1" visible="no" active="yes"/>
<layer number="47" name="Measures" color="7" fill="1" visible="no" active="yes"/>
<layer number="48" name="Document" color="7" fill="1" visible="no" active="yes"/>
<layer number="49" name="Reference" color="7" fill="1" visible="no" active="yes"/>
<layer number="51" name="tDocu" color="7" fill="1" visible="yes" active="yes"/>
<layer number="52" name="bDocu" color="7" fill="1" visible="yes" active="yes"/>
<layer number="88" name="SimResults" color="9" fill="1" visible="no" active="no"/>
<layer number="89" name="SimProbes" color="9" fill="1" visible="no" active="no"/>
<layer number="90" name="Modules" color="5" fill="1" visible="no" active="no"/>
<layer number="91" name="Nets" color="2" fill="1" visible="no" active="no"/>
<layer number="92" name="Busses" color="1" fill="1" visible="no" active="no"/>
<layer number="93" name="Pins" color="2" fill="1" visible="no" active="no"/>
<layer number="94" name="Symbols" color="4" fill="1" visible="no" active="no"/>
<layer number="95" name="Names" color="7" fill="1" visible="no" active="no"/>
<layer number="96" name="Values" color="7" fill="1" visible="no" active="no"/>
<layer number="97" name="Info" color="7" fill="1" visible="no" active="no"/>
<layer number="98" name="Guide" color="6" fill="1" visible="no" active="no"/>
</layers>
<board>
<plain>
<wire x1="0" y1="0" x2="57.13" y2="0" width="0" layer="20"/>
<wire x1="57.13" y1="0" x2="57.13" y2="59.36" width="0" layer="20"/>
<wire x1="57.13" y1="59.36" x2="0" y2="59.36" width="0" layer="20"/>
<wire x1="0" y1="59.36" x2="0" y2="0" width="0" layer="20"/>
<dimension x1="-5.08" y1="59.69" x2="-5.08" y2="0" x3="-8.89" y3="29.845" textsize="1.778" layer="1"/>
<hole x="13.97" y="6.35" drill="3.048"/>
<hole x="7.62" y="30.48" drill="3.048"/>
<hole x="50.8" y="40.64" drill="3.048"/>
<text x="43.18" y="55.88" size="1.778" layer="25">150-200V</text>
<hole x="5.08" y="54.61" drill="3.048"/>
</plain>
<libraries>
<library name="rcl" urn="urn:adsk.eagle:library:334">
<description>&lt;b&gt;Resistors, Capacitors, Inductors&lt;/b&gt;&lt;p&gt;
Based on the previous libraries:
&lt;ul&gt;
&lt;li&gt;r.lbr
&lt;li&gt;cap.lbr 
&lt;li&gt;cap-fe.lbr
&lt;li&gt;captant.lbr
&lt;li&gt;polcap.lbr
&lt;li&gt;ipc-smd.lbr
&lt;/ul&gt;
All SMD packages are defined according to the IPC specifications and  CECC&lt;p&gt;
&lt;author&gt;Created by librarian@cadsoft.de&lt;/author&gt;&lt;p&gt;
&lt;p&gt;
for Electrolyt Capacitors see also :&lt;p&gt;
www.bccomponents.com &lt;p&gt;
www.panasonic.com&lt;p&gt;
www.kemet.com&lt;p&gt;
http://www.secc.co.jp/pdf/os_e/2004/e_os_all.pdf &lt;b&gt;(SANYO)&lt;/b&gt;
&lt;p&gt;
for trimmer refence see : &lt;u&gt;www.electrospec-inc.com/cross_references/trimpotcrossref.asp&lt;/u&gt;&lt;p&gt;

&lt;table border=0 cellspacing=0 cellpadding=0 width="100%" cellpaddding=0&gt;
&lt;tr valign="top"&gt;

&lt;! &lt;td width="10"&gt;&amp;nbsp;&lt;/td&gt;
&lt;td width="90%"&gt;

&lt;b&gt;&lt;font color="#0000FF" size="4"&gt;TRIM-POT CROSS REFERENCE&lt;/font&gt;&lt;/b&gt;
&lt;P&gt;
&lt;TABLE BORDER=0 CELLSPACING=1 CELLPADDING=2&gt;
  &lt;TR&gt;
    &lt;TD COLSPAN=8&gt;
      &lt;FONT SIZE=3 FACE=ARIAL&gt;&lt;B&gt;RECTANGULAR MULTI-TURN&lt;/B&gt;&lt;/FONT&gt;
    &lt;/TD&gt;
  &lt;/TR&gt;
  &lt;TR&gt;
    &lt;TD ALIGN=CENTER&gt;
      &lt;B&gt;
      &lt;FONT SIZE=3 FACE=ARIAL color="#FF0000"&gt;BOURNS&lt;/FONT&gt;
      &lt;/B&gt;
    &lt;/TD&gt;
    &lt;TD ALIGN=CENTER&gt;
      &lt;B&gt;
      &lt;FONT SIZE=3 FACE=ARIAL color="#FF0000"&gt;BI&amp;nbsp;TECH&lt;/FONT&gt;
      &lt;/B&gt;
    &lt;/TD&gt;
    &lt;TD ALIGN=CENTER&gt;
      &lt;B&gt;
      &lt;FONT SIZE=3 FACE=ARIAL color="#FF0000"&gt;DALE-VISHAY&lt;/FONT&gt;
      &lt;/B&gt;
    &lt;/TD&gt;
    &lt;TD ALIGN=CENTER&gt;
      &lt;B&gt;
      &lt;FONT SIZE=3 FACE=ARIAL color="#FF0000"&gt;PHILIPS/MEPCO&lt;/FONT&gt;
      &lt;/B&gt;
    &lt;/TD&gt;
    &lt;TD ALIGN=CENTER&gt;
      &lt;B&gt;
      &lt;FONT SIZE=3 FACE=ARIAL color="#FF0000"&gt;MURATA&lt;/FONT&gt;
      &lt;/B&gt;
    &lt;/TD&gt;
    &lt;TD ALIGN=CENTER&gt;
      &lt;B&gt;
      &lt;FONT SIZE=3 FACE=ARIAL color="#FF0000"&gt;PANASONIC&lt;/FONT&gt;
      &lt;/B&gt;
    &lt;/TD&gt;
    &lt;TD ALIGN=CENTER&gt;
      &lt;B&gt;
      &lt;FONT SIZE=3 FACE=ARIAL color="#FF0000"&gt;SPECTROL&lt;/FONT&gt;
      &lt;/B&gt;
    &lt;/TD&gt;
    &lt;TD ALIGN=CENTER&gt;
      &lt;B&gt;
      &lt;FONT SIZE=3 FACE=ARIAL color="#FF0000"&gt;MILSPEC&lt;/FONT&gt;
      &lt;/B&gt;
    &lt;/TD&gt;&lt;TD&gt;&amp;nbsp;&lt;/TD&gt;
  &lt;/TR&gt;
  &lt;TR&gt;
    &lt;TD BGCOLOR="#cccccc" ALIGN=CENTER&gt;&lt;FONT FACE=ARIAL SIZE=3 &gt;
      3005P&lt;BR&gt;
      3006P&lt;BR&gt;
      3006W&lt;BR&gt;
      3006Y&lt;BR&gt;
      3009P&lt;BR&gt;
      3009W&lt;BR&gt;
      3009Y&lt;BR&gt;
      3057J&lt;BR&gt;
      3057L&lt;BR&gt;
      3057P&lt;BR&gt;
      3057Y&lt;BR&gt;
      3059J&lt;BR&gt;
      3059L&lt;BR&gt;
      3059P&lt;BR&gt;
      3059Y&lt;BR&gt;&lt;/FONT&gt;
    &lt;/TD&gt;
    &lt;TD BGCOLOR="#cccccc" ALIGN=CENTER&gt;&lt;FONT FACE=ARIAL SIZE=3&gt;
      -&lt;BR&gt;
      89P&lt;BR&gt;
      89W&lt;BR&gt;
      89X&lt;BR&gt;
      89PH&lt;BR&gt;
      76P&lt;BR&gt;
      89XH&lt;BR&gt;
      78SLT&lt;BR&gt;
      78L&amp;nbsp;ALT&lt;BR&gt;
      56P&amp;nbsp;ALT&lt;BR&gt;
      78P&amp;nbsp;ALT&lt;BR&gt;
      T8S&lt;BR&gt;
      78L&lt;BR&gt;
      56P&lt;BR&gt;
      78P&lt;BR&gt;&lt;/FONT&gt;
    &lt;/TD&gt;
    &lt;TD BGCOLOR="#cccccc" ALIGN=CENTER&gt;&lt;FONT FACE=ARIAL SIZE=3&gt;
      -&lt;BR&gt;
      T18/784&lt;BR&gt;
      783&lt;BR&gt;
      781&lt;BR&gt;
      -&lt;BR&gt;
      -&lt;BR&gt;
      -&lt;BR&gt;
      2199&lt;BR&gt;
      1697/1897&lt;BR&gt;
      1680/1880&lt;BR&gt;
      2187&lt;BR&gt;
      -&lt;BR&gt;
      -&lt;BR&gt;
      -&lt;BR&gt;
      -&lt;BR&gt;&lt;/FONT&gt;
    &lt;/TD&gt;
    &lt;TD BGCOLOR="#cccccc" ALIGN=CENTER&gt;&lt;FONT FACE=ARIAL SIZE=3&gt;
      -&lt;BR&gt;
      8035EKP/CT20/RJ-20P&lt;BR&gt;
      -&lt;BR&gt;
      RJ-20X&lt;BR&gt;
      -&lt;BR&gt;
      -&lt;BR&gt;
      -&lt;BR&gt;
      1211L&lt;BR&gt;
      8012EKQ&amp;nbsp;ALT&lt;BR&gt;
      8012EKR&amp;nbsp;ALT&lt;BR&gt;
      1211P&lt;BR&gt;
      8012EKJ&lt;BR&gt;
      8012EKL&lt;BR&gt;
      8012EKQ&lt;BR&gt;
      8012EKR&lt;BR&gt;&lt;/FONT&gt;
    &lt;/TD&gt;
    &lt;TD BGCOLOR="#cccccc" ALIGN=CENTER&gt;&lt;FONT FACE=ARIAL SIZE=3&gt;
      -&lt;BR&gt;
      2101P&lt;BR&gt;
      2101W&lt;BR&gt;
      2101Y&lt;BR&gt;
      -&lt;BR&gt;
      -&lt;BR&gt;
      -&lt;BR&gt;
      -&lt;BR&gt;
      -&lt;BR&gt;
      -&lt;BR&gt;
      -&lt;BR&gt;
      -&lt;BR&gt;
      2102L&lt;BR&gt;
      2102S&lt;BR&gt;
      2102Y&lt;BR&gt;&lt;/FONT&gt;
    &lt;/TD&gt;
    &lt;TD BGCOLOR="#cccccc" ALIGN=CENTER&gt;&lt;FONT FACE=ARIAL SIZE=3&gt;
      -&lt;BR&gt;
      EVMCOG&lt;BR&gt;
      -&lt;BR&gt;
      -&lt;BR&gt;
      -&lt;BR&gt;
      -&lt;BR&gt;
      -&lt;BR&gt;
      -&lt;BR&gt;
      -&lt;BR&gt;
      -&lt;BR&gt;
      -&lt;BR&gt;
      -&lt;BR&gt;
      -&lt;BR&gt;
      -&lt;BR&gt;
      -&lt;BR&gt;&lt;/FONT&gt;
    &lt;/TD&gt;
    &lt;TD BGCOLOR="#cccccc" ALIGN=CENTER&gt;&lt;FONT FACE=ARIAL SIZE=3&gt;
      -&lt;BR&gt;
      43P&lt;BR&gt;
      43W&lt;BR&gt;
      43Y&lt;BR&gt;
      -&lt;BR&gt;
      -&lt;BR&gt;
      -&lt;BR&gt;
      -&lt;BR&gt;
      40L&lt;BR&gt;
      40P&lt;BR&gt;
      40Y&lt;BR&gt;
      70Y-T602&lt;BR&gt;
      70L&lt;BR&gt;
      70P&lt;BR&gt;
      70Y&lt;BR&gt;&lt;/FONT&gt;
    &lt;/TD&gt;
    &lt;TD BGCOLOR="#cccccc" ALIGN=CENTER&gt;&lt;FONT FACE=ARIAL SIZE=3&gt;
      -&lt;BR&gt;
      -&lt;BR&gt;
      -&lt;BR&gt;
      -&lt;BR&gt;
      -&lt;BR&gt;
      -&lt;BR&gt;
      -&lt;BR&gt;
      -&lt;BR&gt;
      RT/RTR12&lt;BR&gt;
      RT/RTR12&lt;BR&gt;
      RT/RTR12&lt;BR&gt;
      -&lt;BR&gt;
      RJ/RJR12&lt;BR&gt;
      RJ/RJR12&lt;BR&gt;
      RJ/RJR12&lt;BR&gt;&lt;/FONT&gt;
    &lt;/TD&gt;
  &lt;/TR&gt;
  &lt;TR&gt;
    &lt;TD COLSPAN=8&gt;&amp;nbsp;
    &lt;/TD&gt;
  &lt;/TR&gt;
  &lt;TR&gt;
    &lt;TD COLSPAN=8&gt;
      &lt;FONT SIZE=4 FACE=ARIAL&gt;&lt;B&gt;SQUARE MULTI-TURN&lt;/B&gt;&lt;/FONT&gt;
    &lt;/TD&gt;
  &lt;/TR&gt;
  &lt;TR&gt;
   &lt;TD ALIGN=CENTER&gt;
      &lt;FONT SIZE=3 FACE=ARIAL&gt;&lt;B&gt;BOURN&lt;/B&gt;&lt;/FONT&gt;
    &lt;/TD&gt;
    &lt;TD ALIGN=CENTER&gt;
      &lt;FONT SIZE=3 FACE=ARIAL&gt;&lt;B&gt;BI&amp;nbsp;TECH&lt;/B&gt;&lt;/FONT&gt;
    &lt;/TD&gt;
    &lt;TD ALIGN=CENTER&gt;
      &lt;FONT SIZE=3 FACE=ARIAL&gt;&lt;B&gt;DALE-VISHAY&lt;/B&gt;&lt;/FONT&gt;
    &lt;/TD&gt;
    &lt;TD ALIGN=CENTER&gt;
      &lt;FONT SIZE=3 FACE=ARIAL&gt;&lt;B&gt;PHILIPS/MEPCO&lt;/B&gt;&lt;/FONT&gt;
    &lt;/TD&gt;
    &lt;TD ALIGN=CENTER&gt;
      &lt;FONT SIZE=3 FACE=ARIAL&gt;&lt;B&gt;MURATA&lt;/B&gt;&lt;/FONT&gt;
    &lt;/TD&gt;
    &lt;TD ALIGN=CENTER&gt;
      &lt;FONT SIZE=3 FACE=ARIAL&gt;&lt;B&gt;PANASONIC&lt;/B&gt;&lt;/FONT&gt;
    &lt;/TD&gt;
    &lt;TD ALIGN=CENTER&gt;
      &lt;FONT SIZE=3 FACE=ARIAL&gt;&lt;B&gt;SPECTROL&lt;/B&gt;&lt;/FONT&gt;
    &lt;/TD&gt;
    &lt;TD ALIGN=CENTER&gt;
      &lt;FONT SIZE=3 FACE=ARIAL&gt;&lt;B&gt;MILSPEC&lt;/B&gt;&lt;/FONT&gt;
    &lt;/TD&gt;
  &lt;/TR&gt;
  &lt;TR&gt;
    &lt;TD BGCOLOR="#cccccc" ALIGN=CENTER&gt;&lt;FONT FACE=ARIAL SIZE=3&gt;
      3250L&lt;BR&gt;
      3250P&lt;BR&gt;
      3250W&lt;BR&gt;
      3250X&lt;BR&gt;
      3252P&lt;BR&gt;
      3252W&lt;BR&gt;
      3252X&lt;BR&gt;
      3260P&lt;BR&gt;
      3260W&lt;BR&gt;
      3260X&lt;BR&gt;
      3262P&lt;BR&gt;
      3262W&lt;BR&gt;
      3262X&lt;BR&gt;
      3266P&lt;BR&gt;
      3266W&lt;BR&gt;
      3266X&lt;BR&gt;
      3290H&lt;BR&gt;
      3290P&lt;BR&gt;
      3290W&lt;BR&gt;
      3292P&lt;BR&gt;
      3292W&lt;BR&gt;
      3292X&lt;BR&gt;
      3296P&lt;BR&gt;
      3296W&lt;BR&gt;
      3296X&lt;BR&gt;
      3296Y&lt;BR&gt;
      3296Z&lt;BR&gt;
      3299P&lt;BR&gt;
      3299W&lt;BR&gt;
      3299X&lt;BR&gt;
      3299Y&lt;BR&gt;
      3299Z&lt;BR&gt;&lt;/FONT&gt;
    &lt;/TD&gt;
    &lt;TD BGCOLOR="#cccccc" ALIGN=CENTER&gt;&lt;FONT FACE=ARIAL SIZE=3&gt;
      -&lt;BR&gt;
      66P&amp;nbsp;ALT&lt;BR&gt;
      66W&amp;nbsp;ALT&lt;BR&gt;
      66X&amp;nbsp;ALT&lt;BR&gt;
      66P&amp;nbsp;ALT&lt;BR&gt;
      66W&amp;nbsp;ALT&lt;BR&gt;
      66X&amp;nbsp;ALT&lt;BR&gt;
      -&lt;BR&gt;
      64W&amp;nbsp;ALT&lt;BR&gt;
      -&lt;BR&gt;
      64P&amp;nbsp;ALT&lt;BR&gt;
      64W&amp;nbsp;ALT&lt;BR&gt;
      64X&amp;nbsp;ALT&lt;BR&gt;
      64P&lt;BR&gt;
      64W&lt;BR&gt;
      64X&lt;BR&gt;
      66X&amp;nbsp;ALT&lt;BR&gt;
      66P&amp;nbsp;ALT&lt;BR&gt;
      66W&amp;nbsp;ALT&lt;BR&gt;
      66P&lt;BR&gt;
      66W&lt;BR&gt;
      66X&lt;BR&gt;
      67P&lt;BR&gt;
      67W&lt;BR&gt;
      67X&lt;BR&gt;
      67Y&lt;BR&gt;
      67Z&lt;BR&gt;
      68P&lt;BR&gt;
      68W&lt;BR&gt;
      68X&lt;BR&gt;
      67Y&amp;nbsp;ALT&lt;BR&gt;
      67Z&amp;nbsp;ALT&lt;BR&gt;&lt;/FONT&gt;
    &lt;/TD&gt;
    &lt;TD BGCOLOR="#cccccc" ALIGN=CENTER&gt;&lt;FONT FACE=ARIAL SIZE=3&gt;
      5050&lt;BR&gt;
      5091&lt;BR&gt;
      5080&lt;BR&gt;
      5087&lt;BR&gt;
      -&lt;BR&gt;
      -&lt;BR&gt;
      -&lt;BR&gt;
      -&lt;BR&gt;
      -&lt;BR&gt;
      -&lt;BR&gt;
      -&lt;BR&gt;
      T63YB&lt;BR&gt;
      T63XB&lt;BR&gt;
      -&lt;BR&gt;
      -&lt;BR&gt;
      -&lt;BR&gt;
      5887&lt;BR&gt;
      5891&lt;BR&gt;
      5880&lt;BR&gt;
      -&lt;BR&gt;
      -&lt;BR&gt;
      -&lt;BR&gt;
      T93Z&lt;BR&gt;
      T93YA&lt;BR&gt;
      T93XA&lt;BR&gt;
      T93YB&lt;BR&gt;
      T93XB&lt;BR&gt;
      -&lt;BR&gt;
      -&lt;BR&gt;
      -&lt;BR&gt;
      -&lt;BR&gt;
      -&lt;BR&gt;&lt;/FONT&gt;
    &lt;/TD&gt;
    &lt;TD BGCOLOR="#cccccc" ALIGN=CENTER&gt;&lt;FONT FACE=ARIAL SIZE=3&gt;
      -&lt;BR&gt;
      -&lt;BR&gt;
      -&lt;BR&gt;
      -&lt;BR&gt;
      -&lt;BR&gt;
      -&lt;BR&gt;
      -&lt;BR&gt;
      -&lt;BR&gt;
      -&lt;BR&gt;
      -&lt;BR&gt;
      8026EKP&lt;BR&gt;
      8026EKW&lt;BR&gt;
      8026EKM&lt;BR&gt;
      8026EKP&lt;BR&gt;
      8026EKB&lt;BR&gt;
      8026EKM&lt;BR&gt;
      1309X&lt;BR&gt;
      1309P&lt;BR&gt;
      1309W&lt;BR&gt;
      8024EKP&lt;BR&gt;
      8024EKW&lt;BR&gt;
      8024EKN&lt;BR&gt;
      RJ-9P/CT9P&lt;BR&gt;
      RJ-9W&lt;BR&gt;
      RJ-9X&lt;BR&gt;
      -&lt;BR&gt;
      -&lt;BR&gt;
      -&lt;BR&gt;
      -&lt;BR&gt;
      -&lt;BR&gt;
      -&lt;BR&gt;
      -&lt;BR&gt;&lt;/FONT&gt;
    &lt;/TD&gt;
    &lt;TD BGCOLOR="#cccccc" ALIGN=CENTER&gt;&lt;FONT FACE=ARIAL SIZE=3&gt;
      -&lt;BR&gt;
      -&lt;BR&gt;
      -&lt;BR&gt;
      -&lt;BR&gt;
      -&lt;BR&gt;
      -&lt;BR&gt;
      -&lt;BR&gt;
      -&lt;BR&gt;
      -&lt;BR&gt;
      -&lt;BR&gt;
      3103P&lt;BR&gt;
      3103Y&lt;BR&gt;
      3103Z&lt;BR&gt;
      3103P&lt;BR&gt;
      3103Y&lt;BR&gt;
      3103Z&lt;BR&gt;
      -&lt;BR&gt;
      -&lt;BR&gt;
      -&lt;BR&gt;
      -&lt;BR&gt;
      -&lt;BR&gt;
      -&lt;BR&gt;
      3105P/3106P&lt;BR&gt;
      3105W/3106W&lt;BR&gt;
      3105X/3106X&lt;BR&gt;
      3105Y/3106Y&lt;BR&gt;
      3105Z/3105Z&lt;BR&gt;
      3102P&lt;BR&gt;
      3102W&lt;BR&gt;
      3102X&lt;BR&gt;
      3102Y&lt;BR&gt;
      3102Z&lt;BR&gt;&lt;/FONT&gt;
    &lt;/TD&gt;
    &lt;TD BGCOLOR="#cccccc" ALIGN=CENTER&gt;&lt;FONT FACE=ARIAL SIZE=3&gt;
      -&lt;BR&gt;
      -&lt;BR&gt;
      -&lt;BR&gt;
      -&lt;BR&gt;
      -&lt;BR&gt;
      -&lt;BR&gt;
      -&lt;BR&gt;
      -&lt;BR&gt;
      -&lt;BR&gt;
      -&lt;BR&gt;
      -&lt;BR&gt;
      -&lt;BR&gt;
      -&lt;BR&gt;
      -&lt;BR&gt;
      -&lt;BR&gt;
      -&lt;BR&gt;
      -&lt;BR&gt;
      -&lt;BR&gt;
      -&lt;BR&gt;
      -&lt;BR&gt;
      -&lt;BR&gt;
      -&lt;BR&gt;
      EVMCBG&lt;BR&gt;
      EVMCCG&lt;BR&gt;
      -&lt;BR&gt;
      -&lt;BR&gt;
      -&lt;BR&gt;
      -&lt;BR&gt;
      -&lt;BR&gt;
      -&lt;BR&gt;
      -&lt;BR&gt;
      -&lt;BR&gt;&lt;/FONT&gt;
    &lt;/TD&gt;
    &lt;TD BGCOLOR="#cccccc" ALIGN=CENTER&gt;&lt;FONT FACE=ARIAL SIZE=3&gt;
      55-1-X&lt;BR&gt;
      55-4-X&lt;BR&gt;
      55-3-X&lt;BR&gt;
      55-2-X&lt;BR&gt;
      -&lt;BR&gt;
      -&lt;BR&gt;
      -&lt;BR&gt;
      -&lt;BR&gt;
      -&lt;BR&gt;
      -&lt;BR&gt;
      -&lt;BR&gt;
      -&lt;BR&gt;
      -&lt;BR&gt;
      -&lt;BR&gt;
      -&lt;BR&gt;
      -&lt;BR&gt;
      50-2-X&lt;BR&gt;
      50-4-X&lt;BR&gt;
      50-3-X&lt;BR&gt;
      -&lt;BR&gt;
      -&lt;BR&gt;
      -&lt;BR&gt;
      64P&lt;BR&gt;
      64W&lt;BR&gt;
      64X&lt;BR&gt;
      64Y&lt;BR&gt;
      64Z&lt;BR&gt;
      -&lt;BR&gt;
      -&lt;BR&gt;
      -&lt;BR&gt;
      -&lt;BR&gt;
      -&lt;BR&gt;&lt;/FONT&gt;
    &lt;/TD&gt;
    &lt;TD BGCOLOR="#cccccc" ALIGN=CENTER&gt;&lt;FONT FACE=ARIAL SIZE=3&gt;
      RT/RTR22&lt;BR&gt;
      RT/RTR22&lt;BR&gt;
      RT/RTR22&lt;BR&gt;
      RT/RTR22&lt;BR&gt;
      RJ/RJR22&lt;BR&gt;
      RJ/RJR22&lt;BR&gt;
      RJ/RJR22&lt;BR&gt;
      RT/RTR26&lt;BR&gt;
      RT/RTR26&lt;BR&gt;
      RT/RTR26&lt;BR&gt;
      RJ/RJR26&lt;BR&gt;
      RJ/RJR26&lt;BR&gt;
      RJ/RJR26&lt;BR&gt;
      RJ/RJR26&lt;BR&gt;
      RJ/RJR26&lt;BR&gt;
      RJ/RJR26&lt;BR&gt;
      RT/RTR24&lt;BR&gt;
      RT/RTR24&lt;BR&gt;
      RT/RTR24&lt;BR&gt;
      RJ/RJR24&lt;BR&gt;
      RJ/RJR24&lt;BR&gt;
      RJ/RJR24&lt;BR&gt;
      RJ/RJR24&lt;BR&gt;
      RJ/RJR24&lt;BR&gt;
      RJ/RJR24&lt;BR&gt;
      -&lt;BR&gt;
      -&lt;BR&gt;
      -&lt;BR&gt;
      -&lt;BR&gt;
      -&lt;BR&gt;
      -&lt;BR&gt;
      -&lt;BR&gt;&lt;/FONT&gt;
    &lt;/TD&gt;
  &lt;/TR&gt;
  &lt;TR&gt;
    &lt;TD COLSPAN=8&gt;&amp;nbsp;
    &lt;/TD&gt;
  &lt;/TR&gt;
  &lt;TR&gt;
    &lt;TD COLSPAN=8&gt;
      &lt;FONT SIZE=4 FACE=ARIAL&gt;&lt;B&gt;SINGLE TURN&lt;/B&gt;&lt;/FONT&gt;
    &lt;/TD&gt;
  &lt;/TR&gt;
  &lt;TR&gt;
    &lt;TD ALIGN=CENTER&gt;
      &lt;FONT SIZE=3 FACE=ARIAL&gt;&lt;B&gt;BOURN&lt;/B&gt;&lt;/FONT&gt;
    &lt;/TD&gt;
    &lt;TD ALIGN=CENTER&gt;
      &lt;FONT SIZE=3 FACE=ARIAL&gt;&lt;B&gt;BI&amp;nbsp;TECH&lt;/B&gt;&lt;/FONT&gt;
    &lt;/TD&gt;
    &lt;TD ALIGN=CENTER&gt;
      &lt;FONT SIZE=3 FACE=ARIAL&gt;&lt;B&gt;DALE-VISHAY&lt;/B&gt;&lt;/FONT&gt;
    &lt;/TD&gt;
    &lt;TD ALIGN=CENTER&gt;
      &lt;FONT SIZE=3 FACE=ARIAL&gt;&lt;B&gt;PHILIPS/MEPCO&lt;/B&gt;&lt;/FONT&gt;
    &lt;/TD&gt;
    &lt;TD ALIGN=CENTER&gt;
      &lt;FONT SIZE=3 FACE=ARIAL&gt;&lt;B&gt;MURATA&lt;/B&gt;&lt;/FONT&gt;
    &lt;/TD&gt;
    &lt;TD ALIGN=CENTER&gt;
      &lt;FONT SIZE=3 FACE=ARIAL&gt;&lt;B&gt;PANASONIC&lt;/B&gt;&lt;/FONT&gt;
    &lt;/TD&gt;
    &lt;TD ALIGN=CENTER&gt;
      &lt;FONT SIZE=3 FACE=ARIAL&gt;&lt;B&gt;SPECTROL&lt;/B&gt;&lt;/FONT&gt;
    &lt;/TD&gt;
    &lt;TD ALIGN=CENTER&gt;
      &lt;FONT SIZE=3 FACE=ARIAL&gt;&lt;B&gt;MILSPEC&lt;/B&gt;&lt;/FONT&gt;
    &lt;/TD&gt;
  &lt;/TR&gt;
  &lt;TR&gt;
    &lt;TD BGCOLOR="#cccccc" ALIGN=CENTER&gt;&lt;FONT FACE=ARIAL SIZE=3&gt;
      3323P&lt;BR&gt;
      3323S&lt;BR&gt;
      3323W&lt;BR&gt;
      3329H&lt;BR&gt;
      3329P&lt;BR&gt;
      3329W&lt;BR&gt;
      3339H&lt;BR&gt;
      3339P&lt;BR&gt;
      3339W&lt;BR&gt;
      3352E&lt;BR&gt;
      3352H&lt;BR&gt;
      3352K&lt;BR&gt;
      3352P&lt;BR&gt;
      3352T&lt;BR&gt;
      3352V&lt;BR&gt;
      3352W&lt;BR&gt;
      3362H&lt;BR&gt;
      3362M&lt;BR&gt;
      3362P&lt;BR&gt;
      3362R&lt;BR&gt;
      3362S&lt;BR&gt;
      3362U&lt;BR&gt;
      3362W&lt;BR&gt;
      3362X&lt;BR&gt;
      3386B&lt;BR&gt;
      3386C&lt;BR&gt;
      3386F&lt;BR&gt;
      3386H&lt;BR&gt;
      3386K&lt;BR&gt;
      3386M&lt;BR&gt;
      3386P&lt;BR&gt;
      3386S&lt;BR&gt;
      3386W&lt;BR&gt;
      3386X&lt;BR&gt;&lt;/FONT&gt;
    &lt;/TD&gt;
    &lt;TD BGCOLOR="#cccccc" ALIGN=CENTER&gt;&lt;FONT FACE=ARIAL SIZE=3&gt;
      25P&lt;BR&gt;
      25S&lt;BR&gt;
      25RX&lt;BR&gt;
      82P&lt;BR&gt;
      82M&lt;BR&gt;
      82PA&lt;BR&gt;
      -&lt;BR&gt;
      -&lt;BR&gt;
      -&lt;BR&gt;
      91E&lt;BR&gt;
      91X&lt;BR&gt;
      91T&lt;BR&gt;
      91B&lt;BR&gt;
      91A&lt;BR&gt;
      91V&lt;BR&gt;
      91W&lt;BR&gt;
      25W&lt;BR&gt;
      25V&lt;BR&gt;
      25P&lt;BR&gt;
      -&lt;BR&gt;
      25S&lt;BR&gt;
      25U&lt;BR&gt;
      25RX&lt;BR&gt;
      25X&lt;BR&gt;
      72XW&lt;BR&gt;
      72XL&lt;BR&gt;
      72PM&lt;BR&gt;
      72RX&lt;BR&gt;
      -&lt;BR&gt;
      72PX&lt;BR&gt;
      72P&lt;BR&gt;
      72RXW&lt;BR&gt;
      72RXL&lt;BR&gt;
      72X&lt;BR&gt;&lt;/FONT&gt;
    &lt;/TD&gt;
    &lt;TD BGCOLOR="#cccccc" ALIGN=CENTER&gt;&lt;FONT FACE=ARIAL SIZE=3&gt;
      -&lt;BR&gt;
      -&lt;BR&gt;
      -&lt;BR&gt;
      T7YB&lt;BR&gt;
      T7YA&lt;BR&gt;
      -&lt;BR&gt;
      -&lt;BR&gt;
      -&lt;BR&gt;
      -&lt;BR&gt;
      -&lt;BR&gt;
      -&lt;BR&gt;
      -&lt;BR&gt;
      -&lt;BR&gt;
      -&lt;BR&gt;
      -&lt;BR&gt;
      -&lt;BR&gt;
      -&lt;BR&gt;
      TXD&lt;BR&gt;
      TYA&lt;BR&gt;
      TYP&lt;BR&gt;
      -&lt;BR&gt;
      TYD&lt;BR&gt;
      TX&lt;BR&gt;
      -&lt;BR&gt;
      150SX&lt;BR&gt;
      100SX&lt;BR&gt;
      102T&lt;BR&gt;
      101S&lt;BR&gt;
      190T&lt;BR&gt;
      150TX&lt;BR&gt;
      101&lt;BR&gt;
      -&lt;BR&gt;
      -&lt;BR&gt;
      101SX&lt;BR&gt;&lt;/FONT&gt;
    &lt;/TD&gt;
    &lt;TD BGCOLOR="#cccccc" ALIGN=CENTER&gt;&lt;FONT FACE=ARIAL SIZE=3&gt;
      ET6P&lt;BR&gt;
      ET6S&lt;BR&gt;
      ET6X&lt;BR&gt;
      RJ-6W/8014EMW&lt;BR&gt;
      RJ-6P/8014EMP&lt;BR&gt;
      RJ-6X/8014EMX&lt;BR&gt;
      TM7W&lt;BR&gt;
      TM7P&lt;BR&gt;
      TM7X&lt;BR&gt;
      -&lt;BR&gt;
      8017SMS&lt;BR&gt;
      -&lt;BR&gt;
      8017SMB&lt;BR&gt;
      8017SMA&lt;BR&gt;
      -&lt;BR&gt;
      -&lt;BR&gt;
      CT-6W&lt;BR&gt;
      CT-6H&lt;BR&gt;
      CT-6P&lt;BR&gt;
      CT-6R&lt;BR&gt;
      -&lt;BR&gt;
      CT-6V&lt;BR&gt;
      CT-6X&lt;BR&gt;
      -&lt;BR&gt;
      -&lt;BR&gt;
      8038EKV&lt;BR&gt;
      -&lt;BR&gt;
      8038EKX&lt;BR&gt;
      -&lt;BR&gt;
      -&lt;BR&gt;
      8038EKP&lt;BR&gt;
      8038EKZ&lt;BR&gt;
      8038EKW&lt;BR&gt;
      -&lt;BR&gt;&lt;/FONT&gt;
    &lt;/TD&gt;
    &lt;TD BGCOLOR="#cccccc" ALIGN=CENTER&gt;&lt;FONT FACE=ARIAL SIZE=3&gt;
      -&lt;BR&gt;
      -&lt;BR&gt;
      -&lt;BR&gt;
      3321H&lt;BR&gt;
      3321P&lt;BR&gt;
      3321N&lt;BR&gt;
      1102H&lt;BR&gt;
      1102P&lt;BR&gt;
      1102T&lt;BR&gt;
      RVA0911V304A&lt;BR&gt;
      -&lt;BR&gt;
      RVA0911H413A&lt;BR&gt;
      RVG0707V100A&lt;BR&gt;
      RVA0607V(H)306A&lt;BR&gt;
      RVA1214H213A&lt;BR&gt;
      -&lt;BR&gt;
      -&lt;BR&gt;
      -&lt;BR&gt;
      -&lt;BR&gt;
      -&lt;BR&gt;
      -&lt;BR&gt;
      -&lt;BR&gt;
      -&lt;BR&gt;
      -&lt;BR&gt;
      3104B&lt;BR&gt;
      3104C&lt;BR&gt;
      3104F&lt;BR&gt;
      3104H&lt;BR&gt;
      -&lt;BR&gt;
      3104M&lt;BR&gt;
      3104P&lt;BR&gt;
      3104S&lt;BR&gt;
      3104W&lt;BR&gt;
      3104X&lt;BR&gt;&lt;/FONT&gt;
    &lt;/TD&gt;
    &lt;TD BGCOLOR="#cccccc" ALIGN=CENTER&gt;&lt;FONT FACE=ARIAL SIZE=3&gt;
      EVMQ0G&lt;BR&gt;
      EVMQIG&lt;BR&gt;
      EVMQ3G&lt;BR&gt;
      EVMS0G&lt;BR&gt;
      EVMQ0G&lt;BR&gt;
      EVMG0G&lt;BR&gt;
      -&lt;BR&gt;
      -&lt;BR&gt;
      -&lt;BR&gt;
      EVMK4GA00B&lt;BR&gt;
      EVM30GA00B&lt;BR&gt;
      EVMK0GA00B&lt;BR&gt;
      EVM38GA00B&lt;BR&gt;
      EVMB6&lt;BR&gt;
      EVLQ0&lt;BR&gt;
      -&lt;BR&gt;
      EVMMSG&lt;BR&gt;
      EVMMBG&lt;BR&gt;
      EVMMAG&lt;BR&gt;
      -&lt;BR&gt;
      -&lt;BR&gt;
      EVMMCS&lt;BR&gt;
      -&lt;BR&gt;
      -&lt;BR&gt;
      -&lt;BR&gt;
      -&lt;BR&gt;
      -&lt;BR&gt;
      EVMM1&lt;BR&gt;
      -&lt;BR&gt;
      -&lt;BR&gt;
      EVMM0&lt;BR&gt;
      -&lt;BR&gt;
      -&lt;BR&gt;
      EVMM3&lt;BR&gt;&lt;/FONT&gt;
    &lt;/TD&gt;
    &lt;TD BGCOLOR="#cccccc" ALIGN=CENTER&gt;&lt;FONT FACE=ARIAL SIZE=3&gt;
      -&lt;BR&gt;
      -&lt;BR&gt;
      -&lt;BR&gt;
      62-3-1&lt;BR&gt;
      62-1-2&lt;BR&gt;
      -&lt;BR&gt;
      -&lt;BR&gt;
      -&lt;BR&gt;
      -&lt;BR&gt;
      -&lt;BR&gt;
      -&lt;BR&gt;
      -&lt;BR&gt;
      -&lt;BR&gt;
      -&lt;BR&gt;
      -&lt;BR&gt;
      -&lt;BR&gt;
      67R&lt;BR&gt;
      -&lt;BR&gt;
      67P&lt;BR&gt;
      -&lt;BR&gt;
      -&lt;BR&gt;
      -&lt;BR&gt;
      -&lt;BR&gt;
      67X&lt;BR&gt;
      63V&lt;BR&gt;
      63S&lt;BR&gt;
      63M&lt;BR&gt;
      -&lt;BR&gt;
      -&lt;BR&gt;
      63H&lt;BR&gt;
      63P&lt;BR&gt;
      -&lt;BR&gt;
      -&lt;BR&gt;
      63X&lt;BR&gt;&lt;/FONT&gt;
    &lt;/TD&gt;
    &lt;TD BGCOLOR="#cccccc" ALIGN=CENTER&gt;&lt;FONT FACE=ARIAL SIZE=3&gt;
      -&lt;BR&gt;
      -&lt;BR&gt;
      -&lt;BR&gt;
      RJ/RJR50&lt;BR&gt;
      RJ/RJR50&lt;BR&gt;
      RJ/RJR50&lt;BR&gt;
      -&lt;BR&gt;
      -&lt;BR&gt;
      -&lt;BR&gt;
      -&lt;BR&gt;
      -&lt;BR&gt;
      -&lt;BR&gt;
      -&lt;BR&gt;
      -&lt;BR&gt;
      -&lt;BR&gt;
      -&lt;BR&gt;
      -&lt;BR&gt;
      -&lt;BR&gt;
      -&lt;BR&gt;
      -&lt;BR&gt;
      -&lt;BR&gt;
      -&lt;BR&gt;
      -&lt;BR&gt;
      -&lt;BR&gt;
      -&lt;BR&gt;
      -&lt;BR&gt;
      -&lt;BR&gt;
      -&lt;BR&gt;
      -&lt;BR&gt;
      -&lt;BR&gt;
      -&lt;BR&gt;
      -&lt;BR&gt;
      -&lt;BR&gt;
      -&lt;BR&gt;&lt;/FONT&gt;
    &lt;/TD&gt;
  &lt;/TR&gt;
&lt;/TABLE&gt;
&lt;P&gt;&amp;nbsp;&lt;P&gt;
&lt;TABLE BORDER=0 CELLSPACING=1 CELLPADDING=3&gt;
  &lt;TR&gt;
    &lt;TD COLSPAN=7&gt;
      &lt;FONT color="#0000FF" SIZE=4 FACE=ARIAL&gt;&lt;B&gt;SMD TRIM-POT CROSS REFERENCE&lt;/B&gt;&lt;/FONT&gt;
      &lt;P&gt;
      &lt;FONT SIZE=4 FACE=ARIAL&gt;&lt;B&gt;MULTI-TURN&lt;/B&gt;&lt;/FONT&gt;
    &lt;/TD&gt;
  &lt;/TR&gt;
  &lt;TR&gt;
    &lt;TD&gt;
      &lt;FONT SIZE=3 FACE=ARIAL&gt;&lt;B&gt;BOURNS&lt;/B&gt;&lt;/FONT&gt;
    &lt;/TD&gt;
    &lt;TD&gt;
      &lt;FONT SIZE=3 FACE=ARIAL&gt;&lt;B&gt;BI&amp;nbsp;TECH&lt;/B&gt;&lt;/FONT&gt;
    &lt;/TD&gt;
    &lt;TD&gt;
      &lt;FONT SIZE=3 FACE=ARIAL&gt;&lt;B&gt;DALE-VISHAY&lt;/B&gt;&lt;/FONT&gt;
    &lt;/TD&gt;
    &lt;TD&gt;
      &lt;FONT SIZE=3 FACE=ARIAL&gt;&lt;B&gt;PHILIPS/MEPCO&lt;/B&gt;&lt;/FONT&gt;
    &lt;/TD&gt;
    &lt;TD&gt;
      &lt;FONT SIZE=3 FACE=ARIAL&gt;&lt;B&gt;PANASONIC&lt;/B&gt;&lt;/FONT&gt;
    &lt;/TD&gt;
    &lt;TD&gt;
      &lt;FONT SIZE=3 FACE=ARIAL&gt;&lt;B&gt;TOCOS&lt;/B&gt;&lt;/FONT&gt;
    &lt;/TD&gt;
    &lt;TD&gt;
      &lt;FONT SIZE=3 FACE=ARIAL&gt;&lt;B&gt;AUX/KYOCERA&lt;/B&gt;&lt;/FONT&gt;
    &lt;/TD&gt;
  &lt;/TR&gt;
  &lt;TR&gt;
    &lt;TD BGCOLOR="#cccccc" ALIGN=CENTER&gt;&lt;FONT FACE=ARIAL SIZE=3&gt;
      3224G&lt;BR&gt;
      3224J&lt;BR&gt;
      3224W&lt;BR&gt;
      3269P&lt;BR&gt;
      3269W&lt;BR&gt;
      3269X&lt;BR&gt;&lt;/FONT&gt;
    &lt;/TD&gt;
    &lt;TD BGCOLOR="#cccccc" ALIGN=CENTER&gt;&lt;FONT FACE=ARIAL SIZE=3&gt;
      44G&lt;BR&gt;
      44J&lt;BR&gt;
      44W&lt;BR&gt;
      84P&lt;BR&gt;
      84W&lt;BR&gt;
      84X&lt;BR&gt;&lt;/FONT&gt;
    &lt;/TD&gt;
    &lt;TD BGCOLOR="#cccccc" ALIGN=CENTER&gt;&lt;FONT FACE=ARIAL SIZE=3&gt;
      -&lt;BR&gt;
      -&lt;BR&gt;
      -&lt;BR&gt;
      ST63Z&lt;BR&gt;
      ST63Y&lt;BR&gt;
      -&lt;BR&gt;&lt;/FONT&gt;
    &lt;/TD&gt;
    &lt;TD BGCOLOR="#cccccc" ALIGN=CENTER&gt;&lt;FONT FACE=ARIAL SIZE=3&gt;
      -&lt;BR&gt;
      -&lt;BR&gt;
      -&lt;BR&gt;
      ST5P&lt;BR&gt;
      ST5W&lt;BR&gt;
      ST5X&lt;BR&gt;&lt;/FONT&gt;
    &lt;/TD&gt;
    &lt;TD BGCOLOR="#cccccc" ALIGN=CENTER&gt;&lt;FONT FACE=ARIAL SIZE=3&gt;
      -&lt;BR&gt;
      -&lt;BR&gt;
      -&lt;BR&gt;
      -&lt;BR&gt;
      -&lt;BR&gt;
      -&lt;BR&gt;&lt;/FONT&gt;
    &lt;/TD&gt;
    &lt;TD BGCOLOR="#cccccc" ALIGN=CENTER&gt;&lt;FONT FACE=ARIAL SIZE=3&gt;
      -&lt;BR&gt;
      -&lt;BR&gt;
      -&lt;BR&gt;
      -&lt;BR&gt;
      -&lt;BR&gt;
      -&lt;BR&gt;&lt;/FONT&gt;
    &lt;/TD&gt;
    &lt;TD BGCOLOR="#cccccc" ALIGN=CENTER&gt;&lt;FONT FACE=ARIAL SIZE=3&gt;
      -&lt;BR&gt;
      -&lt;BR&gt;
      -&lt;BR&gt;
      -&lt;BR&gt;
      -&lt;BR&gt;
      -&lt;BR&gt;&lt;/FONT&gt;
    &lt;/TD&gt;
  &lt;/TR&gt;
  &lt;TR&gt;
    &lt;TD COLSPAN=7&gt;&amp;nbsp;
    &lt;/TD&gt;
  &lt;/TR&gt;
  &lt;TR&gt;
    &lt;TD COLSPAN=7&gt;
      &lt;FONT SIZE=4 FACE=ARIAL&gt;&lt;B&gt;SINGLE TURN&lt;/B&gt;&lt;/FONT&gt;
    &lt;/TD&gt;
  &lt;/TR&gt;
  &lt;TR&gt;
    &lt;TD&gt;
      &lt;FONT SIZE=3 FACE=ARIAL&gt;&lt;B&gt;BOURNS&lt;/B&gt;&lt;/FONT&gt;
    &lt;/TD&gt;
    &lt;TD&gt;
      &lt;FONT SIZE=3 FACE=ARIAL&gt;&lt;B&gt;BI&amp;nbsp;TECH&lt;/B&gt;&lt;/FONT&gt;
    &lt;/TD&gt;
    &lt;TD&gt;
      &lt;FONT SIZE=3 FACE=ARIAL&gt;&lt;B&gt;DALE-VISHAY&lt;/B&gt;&lt;/FONT&gt;
    &lt;/TD&gt;
    &lt;TD&gt;
      &lt;FONT SIZE=3 FACE=ARIAL&gt;&lt;B&gt;PHILIPS/MEPCO&lt;/B&gt;&lt;/FONT&gt;
    &lt;/TD&gt;
    &lt;TD&gt;
      &lt;FONT SIZE=3 FACE=ARIAL&gt;&lt;B&gt;PANASONIC&lt;/B&gt;&lt;/FONT&gt;
    &lt;/TD&gt;
    &lt;TD&gt;
      &lt;FONT SIZE=3 FACE=ARIAL&gt;&lt;B&gt;TOCOS&lt;/B&gt;&lt;/FONT&gt;
    &lt;/TD&gt;
    &lt;TD&gt;
      &lt;FONT SIZE=3 FACE=ARIAL&gt;&lt;B&gt;AUX/KYOCERA&lt;/B&gt;&lt;/FONT&gt;
    &lt;/TD&gt;
  &lt;/TR&gt;
  &lt;TR&gt;
    &lt;TD BGCOLOR="#cccccc" ALIGN=CENTER&gt;&lt;FONT FACE=ARIAL SIZE=3&gt;
      3314G&lt;BR&gt;
      3314J&lt;BR&gt;
      3364A/B&lt;BR&gt;
      3364C/D&lt;BR&gt;
      3364W/X&lt;BR&gt;
      3313G&lt;BR&gt;
      3313J&lt;BR&gt;&lt;/FONT&gt;
    &lt;/TD&gt;
    &lt;TD BGCOLOR="#cccccc" ALIGN=CENTER&gt;&lt;FONT FACE=ARIAL SIZE=3&gt;
      23B&lt;BR&gt;
      23A&lt;BR&gt;
      21X&lt;BR&gt;
      21W&lt;BR&gt;
      -&lt;BR&gt;
      22B&lt;BR&gt;
      22A&lt;BR&gt;&lt;/FONT&gt;
    &lt;/TD&gt;
    &lt;TD BGCOLOR="#cccccc" ALIGN=CENTER&gt;&lt;FONT FACE=ARIAL SIZE=3&gt;
      ST5YL/ST53YL&lt;BR&gt;
      ST5YJ/5T53YJ&lt;BR&gt;
      ST-23A&lt;BR&gt;
      ST-22B&lt;BR&gt;
      ST-22&lt;BR&gt;
      -&lt;BR&gt;
      -&lt;BR&gt;&lt;/FONT&gt;
    &lt;/TD&gt;
    &lt;TD BGCOLOR="#cccccc" ALIGN=CENTER&gt;&lt;FONT FACE=ARIAL SIZE=3&gt;
      ST-4B&lt;BR&gt;
      ST-4A&lt;BR&gt;
      -&lt;BR&gt;
      -&lt;BR&gt;
      -&lt;BR&gt;
      ST-3B&lt;BR&gt;
      ST-3A&lt;BR&gt;&lt;/FONT&gt;
    &lt;/TD&gt;
    &lt;TD BGCOLOR="#cccccc" ALIGN=CENTER&gt;&lt;FONT FACE=ARIAL SIZE=3&gt;
      -&lt;BR&gt;
      EVM-6YS&lt;BR&gt;
      EVM-1E&lt;BR&gt;
      EVM-1G&lt;BR&gt;
      EVM-1D&lt;BR&gt;
      -&lt;BR&gt;
      -&lt;BR&gt;&lt;/FONT&gt;
    &lt;/TD&gt;
    &lt;TD BGCOLOR="#cccccc" ALIGN=CENTER&gt;&lt;FONT FACE=ARIAL SIZE=3&gt;
      G4B&lt;BR&gt;
      G4A&lt;BR&gt;
      TR04-3S1&lt;BR&gt;
      TRG04-2S1&lt;BR&gt;
      -&lt;BR&gt;
      -&lt;BR&gt;
      -&lt;BR&gt;&lt;/FONT&gt;
    &lt;/TD&gt;
    &lt;TD BGCOLOR="#cccccc" ALIGN=CENTER&gt;&lt;FONT FACE=ARIAL SIZE=3&gt;
      -&lt;BR&gt;
      -&lt;BR&gt;
      DVR-43A&lt;BR&gt;
      CVR-42C&lt;BR&gt;
      CVR-42A/C&lt;BR&gt;
      -&lt;BR&gt;
      -&lt;BR&gt;&lt;/FONT&gt;
    &lt;/TD&gt;
  &lt;/TR&gt;
&lt;/TABLE&gt;
&lt;P&gt;
&lt;FONT SIZE=4 FACE=ARIAL&gt;&lt;B&gt;ALT =&amp;nbsp;ALTERNATE&lt;/B&gt;&lt;/FONT&gt;
&lt;P&gt;

&amp;nbsp;
&lt;P&gt;
&lt;/td&gt;
&lt;/tr&gt;
&lt;/table&gt;</description>
<packages>
<package name="E7,5-16" urn="urn:adsk.eagle:footprint:22881/1" library_version="11">
<description>&lt;b&gt;ELECTROLYTIC CAPACITOR&lt;/b&gt;&lt;p&gt;
grid 7.62 mm, diameter 16 mm</description>
<wire x1="0.635" y1="0" x2="2.032" y2="0" width="0.1524" layer="21"/>
<wire x1="-0.889" y1="0" x2="-2.032" y2="0" width="0.1524" layer="21"/>
<wire x1="-0.889" y1="1.905" x2="-0.889" y2="0" width="0.1524" layer="21"/>
<wire x1="-0.889" y1="-1.905" x2="-0.254" y2="-1.905" width="0.1524" layer="21"/>
<wire x1="-0.254" y1="-1.905" x2="-0.254" y2="1.905" width="0.1524" layer="21"/>
<wire x1="-0.254" y1="1.905" x2="-0.889" y2="1.905" width="0.1524" layer="21"/>
<wire x1="-0.889" y1="0" x2="-0.889" y2="-1.905" width="0.1524" layer="21"/>
<wire x1="-7.493" y1="0" x2="-5.969" y2="0" width="0.1524" layer="21"/>
<wire x1="-6.731" y1="-0.762" x2="-6.731" y2="0.762" width="0.1524" layer="21"/>
<circle x="0" y="0" radius="8.255" width="0.1524" layer="21"/>
<pad name="-" x="3.81" y="0" drill="1.016" diameter="3.1496" shape="octagon"/>
<pad name="+" x="-3.81" y="0" drill="1.016" diameter="3.1496"/>
<text x="7.874" y="3.81" size="1.778" layer="25" ratio="10">&gt;NAME</text>
<text x="-5.08" y="-4.2926" size="1.778" layer="27" ratio="10">&gt;VALUE</text>
<rectangle x1="0.254" y1="-1.905" x2="0.889" y2="1.905" layer="21"/>
</package>
<package name="E5-8,5" urn="urn:adsk.eagle:footprint:22875/1" library_version="11">
<description>&lt;b&gt;ELECTROLYTIC CAPACITOR&lt;/b&gt;&lt;p&gt;
grid 5.08 mm, diameter 8.5 mm</description>
<wire x1="-1.143" y1="0" x2="-0.889" y2="0" width="0.1524" layer="21"/>
<wire x1="-0.889" y1="0" x2="-0.889" y2="-1.143" width="0.1524" layer="21"/>
<wire x1="-0.889" y1="-1.143" x2="-0.254" y2="-1.143" width="0.1524" layer="21"/>
<wire x1="-0.254" y1="-1.143" x2="-0.254" y2="1.143" width="0.1524" layer="21"/>
<wire x1="-0.254" y1="1.143" x2="-0.889" y2="1.143" width="0.1524" layer="21"/>
<wire x1="-0.889" y1="1.143" x2="-0.889" y2="0" width="0.1524" layer="21"/>
<wire x1="0.635" y1="0" x2="1.143" y2="0" width="0.1524" layer="21"/>
<wire x1="-3.302" y1="2.032" x2="-3.302" y2="1.27" width="0.1524" layer="21"/>
<wire x1="-3.683" y1="1.651" x2="-2.921" y2="1.651" width="0.1524" layer="21"/>
<wire x1="1.143" y1="0" x2="1.651" y2="0" width="0.1524" layer="51"/>
<wire x1="-1.651" y1="0" x2="-1.143" y2="0" width="0.1524" layer="51"/>
<circle x="0" y="0" radius="4.445" width="0.1524" layer="21"/>
<pad name="+" x="-2.54" y="0" drill="1.016" diameter="2.54"/>
<pad name="-" x="2.54" y="0" drill="1.016" diameter="2.54" shape="octagon"/>
<text x="4.1402" y="2.286" size="1.27" layer="25" ratio="10">&gt;NAME</text>
<text x="-2.5146" y="-3.0226" size="1.27" layer="27" ratio="10">&gt;VALUE</text>
<rectangle x1="0.254" y1="-1.143" x2="0.889" y2="1.143" layer="21"/>
</package>
<package name="0411/12" urn="urn:adsk.eagle:footprint:23076/1" library_version="11">
<description>&lt;b&gt;RESISTOR&lt;/b&gt;&lt;p&gt;
type 0411, grid 12.5 mm</description>
<wire x1="6.35" y1="0" x2="5.461" y2="0" width="0.762" layer="51"/>
<wire x1="-6.35" y1="0" x2="-5.461" y2="0" width="0.762" layer="51"/>
<wire x1="5.08" y1="-1.651" x2="5.08" y2="1.651" width="0.1524" layer="21"/>
<wire x1="4.699" y1="2.032" x2="5.08" y2="1.651" width="0.1524" layer="21" curve="-90"/>
<wire x1="-5.08" y1="-1.651" x2="-4.699" y2="-2.032" width="0.1524" layer="21" curve="90"/>
<wire x1="4.699" y1="-2.032" x2="5.08" y2="-1.651" width="0.1524" layer="21" curve="90"/>
<wire x1="-5.08" y1="1.651" x2="-4.699" y2="2.032" width="0.1524" layer="21" curve="-90"/>
<wire x1="4.699" y1="2.032" x2="4.064" y2="2.032" width="0.1524" layer="21"/>
<wire x1="3.937" y1="1.905" x2="4.064" y2="2.032" width="0.1524" layer="21"/>
<wire x1="4.699" y1="-2.032" x2="4.064" y2="-2.032" width="0.1524" layer="21"/>
<wire x1="3.937" y1="-1.905" x2="4.064" y2="-2.032" width="0.1524" layer="21"/>
<wire x1="-3.937" y1="1.905" x2="-4.064" y2="2.032" width="0.1524" layer="21"/>
<wire x1="-3.937" y1="1.905" x2="3.937" y2="1.905" width="0.1524" layer="21"/>
<wire x1="-3.937" y1="-1.905" x2="-4.064" y2="-2.032" width="0.1524" layer="21"/>
<wire x1="-3.937" y1="-1.905" x2="3.937" y2="-1.905" width="0.1524" layer="21"/>
<wire x1="-5.08" y1="1.651" x2="-5.08" y2="-1.651" width="0.1524" layer="21"/>
<wire x1="-4.699" y1="2.032" x2="-4.064" y2="2.032" width="0.1524" layer="21"/>
<wire x1="-4.699" y1="-2.032" x2="-4.064" y2="-2.032" width="0.1524" layer="21"/>
<pad name="1" x="-6.35" y="0" drill="0.9144" shape="octagon"/>
<pad name="2" x="6.35" y="0" drill="0.9144" shape="octagon"/>
<text x="-5.08" y="2.413" size="1.27" layer="25" ratio="10">&gt;NAME</text>
<text x="-3.5814" y="-0.635" size="1.27" layer="27" ratio="10">&gt;VALUE</text>
<rectangle x1="-5.3594" y1="-0.381" x2="-5.08" y2="0.381" layer="21"/>
<rectangle x1="5.08" y1="-0.381" x2="5.3594" y2="0.381" layer="21"/>
</package>
<package name="0207/10" urn="urn:adsk.eagle:footprint:22992/1" library_version="11">
<description>&lt;b&gt;RESISTOR&lt;/b&gt;&lt;p&gt;
type 0207, grid 10 mm</description>
<wire x1="5.08" y1="0" x2="4.064" y2="0" width="0.6096" layer="51"/>
<wire x1="-5.08" y1="0" x2="-4.064" y2="0" width="0.6096" layer="51"/>
<wire x1="-3.175" y1="0.889" x2="-2.921" y2="1.143" width="0.1524" layer="21" curve="-90"/>
<wire x1="-3.175" y1="-0.889" x2="-2.921" y2="-1.143" width="0.1524" layer="21" curve="90"/>
<wire x1="2.921" y1="-1.143" x2="3.175" y2="-0.889" width="0.1524" layer="21" curve="90"/>
<wire x1="2.921" y1="1.143" x2="3.175" y2="0.889" width="0.1524" layer="21" curve="-90"/>
<wire x1="-3.175" y1="-0.889" x2="-3.175" y2="0.889" width="0.1524" layer="21"/>
<wire x1="-2.921" y1="1.143" x2="-2.54" y2="1.143" width="0.1524" layer="21"/>
<wire x1="-2.413" y1="1.016" x2="-2.54" y2="1.143" width="0.1524" layer="21"/>
<wire x1="-2.921" y1="-1.143" x2="-2.54" y2="-1.143" width="0.1524" layer="21"/>
<wire x1="-2.413" y1="-1.016" x2="-2.54" y2="-1.143" width="0.1524" layer="21"/>
<wire x1="2.413" y1="1.016" x2="2.54" y2="1.143" width="0.1524" layer="21"/>
<wire x1="2.413" y1="1.016" x2="-2.413" y2="1.016" width="0.1524" layer="21"/>
<wire x1="2.413" y1="-1.016" x2="2.54" y2="-1.143" width="0.1524" layer="21"/>
<wire x1="2.413" y1="-1.016" x2="-2.413" y2="-1.016" width="0.1524" layer="21"/>
<wire x1="2.921" y1="1.143" x2="2.54" y2="1.143" width="0.1524" layer="21"/>
<wire x1="2.921" y1="-1.143" x2="2.54" y2="-1.143" width="0.1524" layer="21"/>
<wire x1="3.175" y1="-0.889" x2="3.175" y2="0.889" width="0.1524" layer="21"/>
<pad name="1" x="-5.08" y="0" drill="0.8128" shape="octagon"/>
<pad name="2" x="5.08" y="0" drill="0.8128" shape="octagon"/>
<text x="-3.048" y="1.524" size="1.27" layer="25" ratio="10">&gt;NAME</text>
<text x="-2.2606" y="-0.635" size="1.27" layer="27" ratio="10">&gt;VALUE</text>
<rectangle x1="3.175" y1="-0.3048" x2="4.0386" y2="0.3048" layer="21"/>
<rectangle x1="-4.0386" y1="-0.3048" x2="-3.175" y2="0.3048" layer="21"/>
</package>
<package name="C050-025X075" urn="urn:adsk.eagle:footprint:23148/1" library_version="11">
<description>&lt;b&gt;CAPACITOR&lt;/b&gt;&lt;p&gt;
grid 5 mm, outline 2.5 x 7.5 mm</description>
<wire x1="-0.3048" y1="0.635" x2="-0.3048" y2="0" width="0.3048" layer="21"/>
<wire x1="-0.3048" y1="0" x2="-0.3048" y2="-0.635" width="0.3048" layer="21"/>
<wire x1="-0.3048" y1="0" x2="-1.524" y2="0" width="0.1524" layer="21"/>
<wire x1="0.3302" y1="0.635" x2="0.3302" y2="0" width="0.3048" layer="21"/>
<wire x1="0.3302" y1="0" x2="0.3302" y2="-0.635" width="0.3048" layer="21"/>
<wire x1="0.3302" y1="0" x2="1.524" y2="0" width="0.1524" layer="21"/>
<wire x1="-3.683" y1="1.016" x2="-3.683" y2="-1.016" width="0.1524" layer="21"/>
<wire x1="-3.429" y1="-1.27" x2="3.429" y2="-1.27" width="0.1524" layer="21"/>
<wire x1="3.683" y1="-1.016" x2="3.683" y2="1.016" width="0.1524" layer="21"/>
<wire x1="3.429" y1="1.27" x2="-3.429" y2="1.27" width="0.1524" layer="21"/>
<wire x1="3.429" y1="1.27" x2="3.683" y2="1.016" width="0.1524" layer="21" curve="-90"/>
<wire x1="3.429" y1="-1.27" x2="3.683" y2="-1.016" width="0.1524" layer="21" curve="90"/>
<wire x1="-3.683" y1="-1.016" x2="-3.429" y2="-1.27" width="0.1524" layer="21" curve="90"/>
<wire x1="-3.683" y1="1.016" x2="-3.429" y2="1.27" width="0.1524" layer="21" curve="-90"/>
<pad name="1" x="-2.54" y="0" drill="0.8128" shape="octagon"/>
<pad name="2" x="2.54" y="0" drill="0.8128" shape="octagon"/>
<text x="-3.429" y="1.651" size="1.27" layer="25" ratio="10">&gt;NAME</text>
<text x="-3.429" y="-2.794" size="1.27" layer="27" ratio="10">&gt;VALUE</text>
</package>
<package name="C075-052X106" urn="urn:adsk.eagle:footprint:23157/1" library_version="11">
<description>&lt;b&gt;CAPACITOR&lt;/b&gt;&lt;p&gt;
grid 7.5 mm, outline 5.2 x 10.6 mm</description>
<wire x1="4.953" y1="2.54" x2="-4.953" y2="2.54" width="0.1524" layer="21"/>
<wire x1="-5.207" y1="2.286" x2="-5.207" y2="-2.286" width="0.1524" layer="21"/>
<wire x1="-4.953" y1="-2.54" x2="4.953" y2="-2.54" width="0.1524" layer="21"/>
<wire x1="5.207" y1="-2.286" x2="5.207" y2="2.286" width="0.1524" layer="21"/>
<wire x1="4.953" y1="2.54" x2="5.207" y2="2.286" width="0.1524" layer="21" curve="-90"/>
<wire x1="4.953" y1="-2.54" x2="5.207" y2="-2.286" width="0.1524" layer="21" curve="90"/>
<wire x1="-5.207" y1="-2.286" x2="-4.953" y2="-2.54" width="0.1524" layer="21" curve="90"/>
<wire x1="-5.207" y1="2.286" x2="-4.953" y2="2.54" width="0.1524" layer="21" curve="-90"/>
<wire x1="-1.27" y1="0" x2="2.667" y2="0" width="0.1524" layer="21"/>
<wire x1="-2.667" y1="0" x2="-2.159" y2="0" width="0.1524" layer="21"/>
<wire x1="-2.159" y1="1.27" x2="-2.159" y2="0" width="0.4064" layer="21"/>
<wire x1="-2.159" y1="0" x2="-2.159" y2="-1.27" width="0.4064" layer="21"/>
<wire x1="-1.27" y1="1.27" x2="-1.27" y2="0" width="0.4064" layer="21"/>
<wire x1="-1.27" y1="0" x2="-1.27" y2="-1.27" width="0.4064" layer="21"/>
<pad name="1" x="-3.81" y="0" drill="0.9144" shape="octagon"/>
<pad name="2" x="3.81" y="0" drill="0.9144" shape="octagon"/>
<text x="-4.826" y="2.921" size="1.27" layer="25" ratio="10">&gt;NAME</text>
<text x="-0.635" y="-2.032" size="1.27" layer="27" ratio="10">&gt;VALUE</text>
</package>
</packages>
<packages3d>
<package3d name="E7,5-16" urn="urn:adsk.eagle:package:23382/2" type="model" library_version="11">
<description>ELECTROLYTIC CAPACITOR
grid 7.62 mm, diameter 16 mm</description>
<packageinstances>
<packageinstance name="E7,5-16"/>
</packageinstances>
</package3d>
<package3d name="E5-8,5" urn="urn:adsk.eagle:package:23374/1" type="box" library_version="11">
<description>ELECTROLYTIC CAPACITOR
grid 5.08 mm, diameter 8.5 mm</description>
<packageinstances>
<packageinstance name="E5-8,5"/>
</packageinstances>
</package3d>
<package3d name="0411/12" urn="urn:adsk.eagle:package:23578/1" type="box" library_version="11">
<description>RESISTOR
type 0411, grid 12.5 mm</description>
<packageinstances>
<packageinstance name="0411/12"/>
</packageinstances>
</package3d>
<package3d name="0207/10" urn="urn:adsk.eagle:package:23491/2" type="model" library_version="11">
<description>RESISTOR
type 0207, grid 10 mm</description>
<packageinstances>
<packageinstance name="0207/10"/>
</packageinstances>
</package3d>
<package3d name="C050-025X075" urn="urn:adsk.eagle:package:23637/1" type="box" library_version="11">
<description>CAPACITOR
grid 5 mm, outline 2.5 x 7.5 mm</description>
<packageinstances>
<packageinstance name="C050-025X075"/>
</packageinstances>
</package3d>
<package3d name="C075-052X106" urn="urn:adsk.eagle:package:23650/1" type="box" library_version="11">
<description>CAPACITOR
grid 7.5 mm, outline 5.2 x 10.6 mm</description>
<packageinstances>
<packageinstance name="C075-052X106"/>
</packageinstances>
</package3d>
</packages3d>
</library>
<library name="Tubes">
<packages>
<package name="NOVAL">
<circle x="0" y="0" radius="3" width="0.254" layer="21"/>
<circle x="-6.5" y="-2" radius="1.5" width="0.3048" layer="21"/>
<circle x="-4" y="-5.5" radius="1.5" width="0.3048" layer="21"/>
<circle x="4" y="-5.5" radius="1.5" width="0.3048" layer="21"/>
<circle x="6.5" y="-2" radius="1.5811" width="0.3048" layer="21"/>
<circle x="-6.5" y="2.25" radius="1.5206" width="0.3048" layer="21"/>
<circle x="-4" y="5.5" radius="1.4577" width="0.3048" layer="21"/>
<circle x="0" y="6.75" radius="1.5" width="0.3048" layer="21"/>
<circle x="4" y="5.5" radius="1.6007" width="0.3048" layer="21"/>
<circle x="6.5" y="2.25" radius="1.5811" width="0.3048" layer="21"/>
<circle x="-4.0132" y="5.4864" radius="0.9725" width="0.127" layer="21"/>
<circle x="0" y="6.7564" radius="0.9725" width="0.127" layer="21"/>
<circle x="4.0386" y="5.4864" radius="0.9725" width="0.127" layer="21"/>
<circle x="6.5532" y="2.2352" radius="0.9725" width="0.127" layer="21"/>
<circle x="6.5532" y="-2.0066" radius="0.9725" width="0.127" layer="21"/>
<circle x="4.0132" y="-5.5372" radius="0.9725" width="0.127" layer="21"/>
<circle x="-4.0132" y="-5.5372" radius="0.9725" width="0.127" layer="21"/>
<circle x="-6.5278" y="-2.0066" radius="0.9725" width="0.127" layer="21"/>
<circle x="-6.5024" y="2.2606" radius="0.9725" width="0.127" layer="21"/>
<circle x="0" y="0" radius="11.43" width="0.6096" layer="21"/>
<circle x="0" y="0" radius="2.54" width="0.4064" layer="21"/>
<circle x="0" y="0" radius="9.5461" width="0.4064" layer="21"/>
<pad name="9" x="-5.207" y="-6.731" drill="1.4224" diameter="2.54"/>
<pad name="1" x="5.207" y="-6.858" drill="1.4224" diameter="2.54"/>
<pad name="8" x="-8.127" y="-2.611" drill="1.4224" diameter="2.54"/>
<pad name="7" x="-8.004" y="3.02" drill="1.4224" diameter="2.54"/>
<pad name="6" x="-5.004" y="7.024" drill="1.4224" diameter="2.54"/>
<pad name="5" x="0" y="8.524" drill="1.4224" diameter="2.54"/>
<pad name="4" x="5.258" y="6.77" drill="1.4224" diameter="2.54"/>
<pad name="2" x="8.254" y="-2.484" drill="1.4224" diameter="2.54"/>
<pad name="3" x="8.004" y="2.893" drill="1.4224" diameter="2.54"/>
<text x="-4.064" y="-14.732" size="1.778" layer="25" ratio="10">&gt;NAME</text>
<text x="-4.064" y="-17.018" size="1.778" layer="27" ratio="10">&gt;VALUE</text>
<text x="-2.794" y="-4.2164" size="1.27" layer="21">9</text>
<text x="-4.5974" y="-1.7526" size="1.27" layer="21">8</text>
<text x="-4.5466" y="0.7112" size="1.27" layer="21">7</text>
<text x="-2.9718" y="2.8702" size="1.27" layer="21">6</text>
<text x="-0.4318" y="3.5814" size="1.27" layer="21">5</text>
<text x="1.8288" y="2.921" size="1.27" layer="21">4</text>
<text x="3.6068" y="0.7366" size="1.27" layer="21">3</text>
<text x="3.429" y="-1.778" size="1.27" layer="21">2</text>
<text x="1.9304" y="-4.2418" size="1.27" layer="21">1</text>
</package>
</packages>
</library>
<library name="wirepad" urn="urn:adsk.eagle:library:412">
<description>&lt;b&gt;Single Pads&lt;/b&gt;&lt;p&gt;
&lt;author&gt;Created by librarian@cadsoft.de&lt;/author&gt;</description>
<packages>
<package name="3,17/1,3" urn="urn:adsk.eagle:footprint:30815/1" library_version="2">
<description>&lt;b&gt;THROUGH-HOLE PAD&lt;/b&gt;</description>
<wire x1="1.524" y1="-1.016" x2="1.524" y2="-1.524" width="0.1524" layer="21"/>
<wire x1="1.524" y1="-1.524" x2="1.016" y2="-1.524" width="0.1524" layer="21"/>
<wire x1="-1.016" y1="-1.524" x2="-1.524" y2="-1.524" width="0.1524" layer="21"/>
<wire x1="-1.524" y1="-1.524" x2="-1.524" y2="-1.016" width="0.1524" layer="21"/>
<wire x1="-1.524" y1="1.016" x2="-1.524" y2="1.524" width="0.1524" layer="21"/>
<wire x1="-1.524" y1="1.524" x2="-1.016" y2="1.524" width="0.1524" layer="21"/>
<wire x1="1.016" y1="1.524" x2="1.524" y2="1.524" width="0.1524" layer="21"/>
<wire x1="1.524" y1="1.524" x2="1.524" y2="1.016" width="0.1524" layer="21"/>
<circle x="0" y="0" radius="1.27" width="0.1524" layer="51"/>
<pad name="1" x="0" y="0" drill="1.3208" diameter="3.175" shape="octagon"/>
<text x="-1.524" y="1.905" size="1.27" layer="25" ratio="10">&gt;NAME</text>
<text x="0" y="1.2" size="0.0254" layer="27">&gt;VALUE</text>
</package>
</packages>
<packages3d>
<package3d name="3,17/1,3" urn="urn:adsk.eagle:package:30833/1" type="box" library_version="2">
<description>THROUGH-HOLE PAD</description>
<packageinstances>
<packageinstance name="3,17/1,3"/>
</packageinstances>
</package3d>
</packages3d>
</library>
</libraries>
<attributes>
</attributes>
<variantdefs>
</variantdefs>
<classes>
<class number="0" name="default" width="0" drill="0">
</class>
</classes>
<designrules name="default *">
<description language="de">&lt;b&gt;EAGLE Design Rules&lt;/b&gt;
&lt;p&gt;
Die Standard-Design-Rules sind so gewählt, dass sie für 
die meisten Anwendungen passen. Sollte ihre Platine 
besondere Anforderungen haben, treffen Sie die erforderlichen
Einstellungen hier und speichern die Design Rules unter 
einem neuen Namen ab.</description>
<description language="en">&lt;b&gt;EAGLE Design Rules&lt;/b&gt;
&lt;p&gt;
The default Design Rules have been set to cover
a wide range of applications. Your particular design
may have different requirements, so please make the
necessary adjustments and save your customized
design rules under a new name.</description>
<param name="layerSetup" value="(1*16)"/>
<param name="mtCopper" value="0.035mm 0.035mm 0.035mm 0.035mm 0.035mm 0.035mm 0.035mm 0.035mm 0.035mm 0.035mm 0.035mm 0.035mm 0.035mm 0.035mm 0.035mm 0.035mm"/>
<param name="mtIsolate" value="1.5mm 0.15mm 0.2mm 0.15mm 0.2mm 0.15mm 0.2mm 0.15mm 0.2mm 0.15mm 0.2mm 0.15mm 0.2mm 0.15mm 0.2mm"/>
<param name="mdWireWire" value="20mil"/>
<param name="mdWirePad" value="20mil"/>
<param name="mdWireVia" value="20mil"/>
<param name="mdPadPad" value="20mil"/>
<param name="mdPadVia" value="20mil"/>
<param name="mdViaVia" value="20mil"/>
<param name="mdSmdPad" value="6mil"/>
<param name="mdSmdVia" value="6mil"/>
<param name="mdSmdSmd" value="6mil"/>
<param name="mdViaViaSameLayer" value="6mil"/>
<param name="mnLayersViaInSmd" value="2"/>
<param name="mdCopperDimension" value="40mil"/>
<param name="mdDrill" value="6mil"/>
<param name="mdSmdStop" value="0mil"/>
<param name="msWidth" value="6mil"/>
<param name="msDrill" value="0.35mm"/>
<param name="msMicroVia" value="9.99mm"/>
<param name="msBlindViaRatio" value="0.5"/>
<param name="rvPadTop" value="0.25"/>
<param name="rvPadInner" value="0.25"/>
<param name="rvPadBottom" value="0.25"/>
<param name="rvViaOuter" value="0.25"/>
<param name="rvViaInner" value="0.25"/>
<param name="rvMicroViaOuter" value="0.25"/>
<param name="rvMicroViaInner" value="0.25"/>
<param name="rlMinPadTop" value="10mil"/>
<param name="rlMaxPadTop" value="20mil"/>
<param name="rlMinPadInner" value="10mil"/>
<param name="rlMaxPadInner" value="20mil"/>
<param name="rlMinPadBottom" value="10mil"/>
<param name="rlMaxPadBottom" value="20mil"/>
<param name="rlMinViaOuter" value="8mil"/>
<param name="rlMaxViaOuter" value="20mil"/>
<param name="rlMinViaInner" value="8mil"/>
<param name="rlMaxViaInner" value="20mil"/>
<param name="rlMinMicroViaOuter" value="4mil"/>
<param name="rlMaxMicroViaOuter" value="20mil"/>
<param name="rlMinMicroViaInner" value="4mil"/>
<param name="rlMaxMicroViaInner" value="20mil"/>
<param name="psTop" value="-1"/>
<param name="psBottom" value="-1"/>
<param name="psFirst" value="-1"/>
<param name="psElongationLong" value="100"/>
<param name="psElongationOffset" value="100"/>
<param name="mvStopFrame" value="1"/>
<param name="mvCreamFrame" value="0"/>
<param name="mlMinStopFrame" value="4mil"/>
<param name="mlMaxStopFrame" value="4mil"/>
<param name="mlMinCreamFrame" value="0mil"/>
<param name="mlMaxCreamFrame" value="0mil"/>
<param name="mlViaStopLimit" value="0mil"/>
<param name="srRoundness" value="0"/>
<param name="srMinRoundness" value="0mil"/>
<param name="srMaxRoundness" value="0mil"/>
<param name="slThermalIsolate" value="10mil"/>
<param name="slThermalsForVias" value="0"/>
<param name="dpMaxLengthDifference" value="10mm"/>
<param name="dpGapFactor" value="2.5"/>
<param name="checkAngle" value="0"/>
<param name="checkFont" value="1"/>
<param name="checkRestrict" value="1"/>
<param name="checkStop" value="0"/>
<param name="checkValues" value="0"/>
<param name="checkNames" value="1"/>
<param name="checkWireStubs" value="1"/>
<param name="checkPolygonWidth" value="0"/>
<param name="useDiameter" value="13"/>
<param name="maxErrors" value="50"/>
</designrules>
<autorouter>
<pass name="Default">
<param name="RoutingGrid" value="50mil"/>
<param name="AutoGrid" value="1"/>
<param name="Efforts" value="0"/>
<param name="TopRouterVariant" value="1"/>
<param name="tpViaShape" value="round"/>
<param name="PrefDir.1" value="a"/>
<param name="PrefDir.2" value="0"/>
<param name="PrefDir.3" value="0"/>
<param name="PrefDir.4" value="0"/>
<param name="PrefDir.5" value="0"/>
<param name="PrefDir.6" value="0"/>
<param name="PrefDir.7" value="0"/>
<param name="PrefDir.8" value="0"/>
<param name="PrefDir.9" value="0"/>
<param name="PrefDir.10" value="0"/>
<param name="PrefDir.11" value="0"/>
<param name="PrefDir.12" value="0"/>
<param name="PrefDir.13" value="0"/>
<param name="PrefDir.14" value="0"/>
<param name="PrefDir.15" value="0"/>
<param name="PrefDir.16" value="a"/>
<param name="cfVia" value="8"/>
<param name="cfNonPref" value="5"/>
<param name="cfChangeDir" value="2"/>
<param name="cfOrthStep" value="2"/>
<param name="cfDiagStep" value="3"/>
<param name="cfExtdStep" value="0"/>
<param name="cfBonusStep" value="1"/>
<param name="cfMalusStep" value="1"/>
<param name="cfPadImpact" value="4"/>
<param name="cfSmdImpact" value="4"/>
<param name="cfBusImpact" value="0"/>
<param name="cfHugging" value="3"/>
<param name="cfAvoid" value="4"/>
<param name="cfPolygon" value="10"/>
<param name="cfBase.1" value="0"/>
<param name="cfBase.2" value="1"/>
<param name="cfBase.3" value="1"/>
<param name="cfBase.4" value="1"/>
<param name="cfBase.5" value="1"/>
<param name="cfBase.6" value="1"/>
<param name="cfBase.7" value="1"/>
<param name="cfBase.8" value="1"/>
<param name="cfBase.9" value="1"/>
<param name="cfBase.10" value="1"/>
<param name="cfBase.11" value="1"/>
<param name="cfBase.12" value="1"/>
<param name="cfBase.13" value="1"/>
<param name="cfBase.14" value="1"/>
<param name="cfBase.15" value="1"/>
<param name="cfBase.16" value="0"/>
<param name="mnVias" value="20"/>
<param name="mnSegments" value="9999"/>
<param name="mnExtdSteps" value="9999"/>
<param name="mnRipupLevel" value="10"/>
<param name="mnRipupSteps" value="100"/>
<param name="mnRipupTotal" value="100"/>
</pass>
<pass name="Follow-me" refer="Default" active="yes">
</pass>
<pass name="Busses" refer="Default" active="yes">
<param name="cfNonPref" value="4"/>
<param name="cfBusImpact" value="4"/>
<param name="cfHugging" value="0"/>
<param name="mnVias" value="0"/>
</pass>
<pass name="Route" refer="Default" active="yes">
</pass>
<pass name="Optimize1" refer="Default" active="yes">
<param name="cfVia" value="99"/>
<param name="cfExtdStep" value="10"/>
<param name="cfHugging" value="1"/>
<param name="mnExtdSteps" value="1"/>
<param name="mnRipupLevel" value="0"/>
</pass>
<pass name="Optimize2" refer="Optimize1" active="yes">
<param name="cfNonPref" value="0"/>
<param name="cfChangeDir" value="6"/>
<param name="cfExtdStep" value="0"/>
<param name="cfBonusStep" value="2"/>
<param name="cfMalusStep" value="2"/>
<param name="cfPadImpact" value="2"/>
<param name="cfSmdImpact" value="2"/>
<param name="cfHugging" value="0"/>
</pass>
<pass name="Optimize3" refer="Optimize2" active="yes">
<param name="cfChangeDir" value="8"/>
<param name="cfPadImpact" value="0"/>
<param name="cfSmdImpact" value="0"/>
</pass>
<pass name="Optimize4" refer="Optimize3" active="yes">
<param name="cfChangeDir" value="25"/>
</pass>
</autorouter>
<elements>
<element name="C1" library="rcl" library_urn="urn:adsk.eagle:library:334" package="C075-052X106" package3d_urn="urn:adsk.eagle:package:23650/1" value="330nf" x="10.16" y="16.51" smashed="yes" rot="R270">
<attribute name="NAME" x="6.35" y="21.717" size="1.778" layer="25" ratio="10" rot="R180"/>
<attribute name="POPULARITY" value="4" x="-39.37" y="-12.7" size="1.778" layer="27" rot="R270" display="off"/>
<attribute name="SPICEPREFIX" value="C" x="-39.37" y="-12.7" size="1.778" layer="27" rot="R270" display="off"/>
<attribute name="VALUE" x="5.08" y="19.05" size="1.778" layer="27" ratio="10" rot="R270"/>
</element>
<element name="C2" library="rcl" library_urn="urn:adsk.eagle:library:334" package="C075-052X106" package3d_urn="urn:adsk.eagle:package:23650/1" value="330nf" x="48.26" y="12.7" smashed="yes" rot="R90">
<attribute name="NAME" x="52.07" y="15.113" size="1.778" layer="25" ratio="10"/>
<attribute name="POPULARITY" value="4" x="110.49" y="41.91" size="1.778" layer="27" rot="R90" display="off"/>
<attribute name="SPICEPREFIX" value="C" x="110.49" y="41.91" size="1.778" layer="27" rot="R90" display="off"/>
<attribute name="VALUE" x="53.34" y="7.62" size="1.778" layer="27" ratio="10" rot="R90"/>
</element>
<element name="C3" library="rcl" library_urn="urn:adsk.eagle:library:334" package="E7,5-16" package3d_urn="urn:adsk.eagle:package:23382/2" value="47u" x="11.43" y="44.45" smashed="yes" rot="R180">
<attribute name="NAME" x="6.096" y="36.83" size="1.778" layer="25" ratio="10" rot="R180"/>
<attribute name="POPULARITY" value="4" x="-38.1" y="53.34" size="1.778" layer="27" rot="R180" display="off"/>
<attribute name="SPICEPREFIX" value="C" x="-38.1" y="53.34" size="1.778" layer="27" rot="R180" display="off"/>
<attribute name="VALUE" x="16.51" y="48.7426" size="1.778" layer="27" ratio="10" rot="R180"/>
</element>
<element name="C4" library="rcl" library_urn="urn:adsk.eagle:library:334" package="E5-8,5" package3d_urn="urn:adsk.eagle:package:23374/1" value="220uf" x="19.05" y="16.51" smashed="yes" rot="R180">
<attribute name="NAME" x="14.9098" y="20.574" size="1.27" layer="25" ratio="10" rot="R180"/>
<attribute name="POPULARITY" value="0" x="-33.02" y="78.74" size="1.778" layer="27" rot="R180" display="off"/>
<attribute name="SPICEPREFIX" value="C" x="-33.02" y="78.74" size="1.778" layer="27" rot="R180" display="off"/>
<attribute name="VALUE" x="20.2946" y="19.5326" size="1.27" layer="27" ratio="10" rot="R180"/>
</element>
<element name="R1" library="rcl" library_urn="urn:adsk.eagle:library:334" package="0411/12" package3d_urn="urn:adsk.eagle:package:23578/1" value="330" x="30.48" y="10.16" smashed="yes" rot="R90">
<attribute name="NAME" x="28.067" y="5.08" size="1.27" layer="25" ratio="10" rot="R90"/>
<attribute name="POPULARITY" value="5" x="102.87" y="30.48" size="1.778" layer="27" rot="R90" display="off"/>
<attribute name="SPICEPREFIX" value="R" x="102.87" y="30.48" size="1.778" layer="27" rot="R90" display="off"/>
<attribute name="VALUE" x="31.115" y="6.5786" size="1.27" layer="27" ratio="10" rot="R90"/>
</element>
<element name="R2" library="rcl" library_urn="urn:adsk.eagle:library:334" package="0207/10" package3d_urn="urn:adsk.eagle:package:23491/2" value="10k" x="48.26" y="26.67" smashed="yes" rot="R270">
<attribute name="NAME" x="45.974" y="32.258" size="1.27" layer="25" ratio="10" rot="R270"/>
<attribute name="POPULARITY" value="81" x="-22.86" y="-22.86" size="1.778" layer="27" rot="R270" display="off"/>
<attribute name="SPICEPREFIX" value="R" x="-22.86" y="-22.86" size="1.778" layer="27" rot="R270" display="off"/>
<attribute name="VALUE" x="47.625" y="28.9306" size="1.27" layer="27" ratio="10" rot="R270"/>
</element>
<element name="R3" library="rcl" library_urn="urn:adsk.eagle:library:334" package="0207/10" package3d_urn="urn:adsk.eagle:package:23491/2" value="470K" x="52.07" y="26.67" smashed="yes" rot="R90">
<attribute name="NAME" x="54.356" y="24.892" size="1.27" layer="25" ratio="10" rot="R90"/>
<attribute name="POPULARITY" value="81" x="123.19" y="88.9" size="1.778" layer="27" rot="R90" display="off"/>
<attribute name="SPICEPREFIX" value="R" x="123.19" y="88.9" size="1.778" layer="27" rot="R90" display="off"/>
<attribute name="VALUE" x="52.705" y="24.4094" size="1.27" layer="27" ratio="10" rot="R90"/>
</element>
<element name="R4" library="rcl" library_urn="urn:adsk.eagle:library:334" package="0207/10" package3d_urn="urn:adsk.eagle:package:23491/2" value="220K" x="15.24" y="29.21" smashed="yes" rot="R270">
<attribute name="NAME" x="16.764" y="29.718" size="1.27" layer="25" ratio="10" rot="R270"/>
<attribute name="POPULARITY" value="81" x="-63.5" y="10.16" size="1.778" layer="27" rot="R270" display="off"/>
<attribute name="SPICEPREFIX" value="R" x="-63.5" y="10.16" size="1.778" layer="27" rot="R270" display="off"/>
<attribute name="VALUE" x="14.605" y="31.4706" size="1.27" layer="27" ratio="10" rot="R270"/>
</element>
<element name="R5" library="rcl" library_urn="urn:adsk.eagle:library:334" package="0207/10" package3d_urn="urn:adsk.eagle:package:23491/2" value="10M" x="39.37" y="5.08" smashed="yes">
<attribute name="NAME" x="37.592" y="6.604" size="1.27" layer="25" ratio="10"/>
<attribute name="POPULARITY" value="81" x="71.12" y="-73.66" size="1.778" layer="27" display="off"/>
<attribute name="SPICEPREFIX" value="R" x="71.12" y="-73.66" size="1.778" layer="27" display="off"/>
<attribute name="VALUE" x="37.1094" y="4.445" size="1.27" layer="27" ratio="10"/>
</element>
<element name="R6" library="rcl" library_urn="urn:adsk.eagle:library:334" package="0411/12" package3d_urn="urn:adsk.eagle:package:23578/1" value="2200" x="27.94" y="46.99" smashed="yes" rot="R180">
<attribute name="NAME" x="33.02" y="44.577" size="1.27" layer="25" ratio="10" rot="R180"/>
<attribute name="POPULARITY" value="5" x="-7.62" y="119.38" size="1.778" layer="27" rot="R180" display="off"/>
<attribute name="SPICEPREFIX" value="R" x="-7.62" y="119.38" size="1.778" layer="27" rot="R180" display="off"/>
<attribute name="VALUE" x="31.5214" y="47.625" size="1.27" layer="27" ratio="10" rot="R180"/>
</element>
<element name="V1" library="Tubes" package="NOVAL" value="" x="30.48" y="30.48" smashed="yes">
<attribute name="NAME" x="25.146" y="17.018" size="1.778" layer="25" ratio="10"/>
<attribute name="VALUE" x="26.416" y="13.462" size="1.778" layer="27" ratio="10"/>
</element>
<element name="R7" library="rcl" library_urn="urn:adsk.eagle:library:334" package="0207/10" package3d_urn="urn:adsk.eagle:package:23491/2" value="10K" x="40.64" y="13.97" smashed="yes" rot="R90">
<attribute name="NAME" x="39.116" y="13.462" size="1.27" layer="25" ratio="10" rot="R90"/>
<attribute name="POPULARITY" value="81" x="40.64" y="13.97" size="1.778" layer="27" rot="R90" display="off"/>
<attribute name="SPICEPREFIX" value="R" x="40.64" y="13.97" size="1.778" layer="27" rot="R90" display="off"/>
<attribute name="VALUE" x="41.275" y="11.7094" size="1.27" layer="27" ratio="10" rot="R90"/>
</element>
<element name="C5" library="rcl" library_urn="urn:adsk.eagle:library:334" package="C050-025X075" package3d_urn="urn:adsk.eagle:package:23637/1" value="200pF" x="44.45" y="22.86" smashed="yes" rot="R270">
<attribute name="NAME" x="43.561" y="27.051" size="1.27" layer="25" ratio="10"/>
<attribute name="POPULARITY" value="29" x="44.45" y="22.86" size="1.778" layer="27" rot="R270" display="off"/>
<attribute name="SPICEPREFIX" value="C" x="44.45" y="22.86" size="1.778" layer="27" rot="R270" display="off"/>
<attribute name="VALUE" x="41.656" y="23.749" size="1.27" layer="27" ratio="10" rot="R270"/>
</element>
<element name="C6" library="rcl" library_urn="urn:adsk.eagle:library:334" package="C050-025X075" package3d_urn="urn:adsk.eagle:package:23637/1" value="200pF" x="48.26" y="35.56" smashed="yes">
<attribute name="NAME" x="47.371" y="37.211" size="1.27" layer="25" ratio="10"/>
<attribute name="POPULARITY" value="29" x="48.26" y="35.56" size="1.778" layer="27" display="off"/>
<attribute name="SPICEPREFIX" value="C" x="48.26" y="35.56" size="1.778" layer="27" display="off"/>
<attribute name="VALUE" x="46.101" y="32.766" size="1.27" layer="27" ratio="10"/>
</element>
<element name="AIN-" library="wirepad" library_urn="urn:adsk.eagle:library:412" package="3,17/1,3" package3d_urn="urn:adsk.eagle:package:30833/1" value="" x="53.34" y="3.81" smashed="yes">
<attribute name="NAME" x="51.816" y="0.635" size="1.27" layer="25" ratio="10"/>
<attribute name="POPULARITY" value="3" x="53.34" y="3.81" size="1.778" layer="27" display="off"/>
<attribute name="VALUE" x="53.34" y="5.01" size="0.0254" layer="27"/>
</element>
<element name="AIN+" library="wirepad" library_urn="urn:adsk.eagle:library:412" package="3,17/1,3" package3d_urn="urn:adsk.eagle:package:30833/1" value="" x="48.26" y="3.81" smashed="yes">
<attribute name="NAME" x="46.736" y="0.635" size="1.27" layer="25" ratio="10"/>
<attribute name="POPULARITY" value="3" x="48.26" y="3.81" size="1.778" layer="27" display="off"/>
<attribute name="VALUE" x="48.26" y="5.01" size="0.0254" layer="27"/>
</element>
<element name="OPT1" library="wirepad" library_urn="urn:adsk.eagle:library:412" package="3,17/1,3" package3d_urn="urn:adsk.eagle:package:30833/1" value="" x="33.02" y="52.07" smashed="yes">
<attribute name="NAME" x="31.496" y="53.975" size="1.27" layer="25" ratio="10"/>
<attribute name="POPULARITY" value="3" x="33.02" y="52.07" size="1.778" layer="27" display="off"/>
<attribute name="VALUE" x="33.02" y="53.27" size="0.0254" layer="27"/>
</element>
<element name="OPT2" library="wirepad" library_urn="urn:adsk.eagle:library:412" package="3,17/1,3" package3d_urn="urn:adsk.eagle:package:30833/1" value="" x="26.67" y="52.07" smashed="yes">
<attribute name="NAME" x="25.146" y="53.975" size="1.27" layer="25" ratio="10"/>
<attribute name="POPULARITY" value="3" x="26.67" y="52.07" size="1.778" layer="27" display="off"/>
<attribute name="VALUE" x="26.67" y="53.27" size="0.0254" layer="27"/>
</element>
<element name="IN+" library="wirepad" library_urn="urn:adsk.eagle:library:412" package="3,17/1,3" package3d_urn="urn:adsk.eagle:package:30833/1" value="" x="45.72" y="52.07" smashed="yes">
<attribute name="NAME" x="44.196" y="53.975" size="1.27" layer="25" ratio="10"/>
<attribute name="POPULARITY" value="3" x="45.72" y="52.07" size="1.778" layer="27" display="off"/>
<attribute name="VALUE" x="45.72" y="53.27" size="0.0254" layer="27"/>
</element>
<element name="IN-" library="wirepad" library_urn="urn:adsk.eagle:library:412" package="3,17/1,3" package3d_urn="urn:adsk.eagle:package:30833/1" value="" x="52.07" y="52.07" smashed="yes">
<attribute name="NAME" x="51.816" y="53.975" size="1.27" layer="25" ratio="10"/>
<attribute name="POPULARITY" value="3" x="52.07" y="52.07" size="1.778" layer="27" display="off"/>
<attribute name="VALUE" x="52.07" y="53.27" size="0.0254" layer="27"/>
</element>
<element name="H1" library="wirepad" library_urn="urn:adsk.eagle:library:412" package="3,17/1,3" package3d_urn="urn:adsk.eagle:package:30833/1" value="" x="40.64" y="45.72" smashed="yes">
<attribute name="NAME" x="39.116" y="47.625" size="1.27" layer="25" ratio="10"/>
<attribute name="POPULARITY" value="3" x="40.64" y="45.72" size="1.778" layer="27" display="off"/>
<attribute name="VALUE" x="40.64" y="46.92" size="0.0254" layer="27"/>
</element>
<element name="H2" library="wirepad" library_urn="urn:adsk.eagle:library:412" package="3,17/1,3" package3d_urn="urn:adsk.eagle:package:30833/1" value="" x="44.45" y="40.64" smashed="yes">
<attribute name="NAME" x="42.926" y="42.545" size="1.27" layer="25" ratio="10"/>
<attribute name="POPULARITY" value="3" x="44.45" y="40.64" size="1.778" layer="27" display="off"/>
<attribute name="VALUE" x="44.45" y="41.84" size="0.0254" layer="27"/>
</element>
</elements>
<signals>
<signal name="N$1">
<contactref element="V1" pad="2"/>
<contactref element="R1" pad="2"/>
<contactref element="C4" pad="+"/>
<wire x1="30.48" y1="16.51" x2="21.59" y2="16.51" width="0.8128" layer="16"/>
<wire x1="38.734" y1="27.996" x2="38.678" y2="27.94" width="0.8128" layer="16"/>
<wire x1="30.48" y1="16.51" x2="30.48" y2="27.996" width="0.8128" layer="16"/>
<wire x1="38.734" y1="27.996" x2="30.48" y2="27.996" width="0.8128" layer="16"/>
</signal>
<signal name="N$2">
<contactref element="V1" pad="3"/>
<contactref element="R2" pad="1"/>
<wire x1="48.26" y1="31.75" x2="46.637" y2="33.373" width="0.8128" layer="16"/>
<wire x1="46.637" y1="33.373" x2="42.827" y2="33.373" width="0.8128" layer="16"/>
<wire x1="42.827" y1="33.373" x2="38.484" y2="33.373" width="0.8128" layer="16"/>
<contactref element="C6" pad="1"/>
<wire x1="42.827" y1="33.373" x2="44.45" y2="34.996" width="0.8128" layer="16"/>
<wire x1="44.45" y1="34.996" x2="45.72" y2="35.56" width="0.8128" layer="16"/>
</signal>
<signal name="N$3">
<contactref element="R2" pad="2"/>
<contactref element="R3" pad="1"/>
<contactref element="C1" pad="2"/>
<wire x1="52.07" y1="21.59" x2="48.26" y2="21.59" width="0.8128" layer="16"/>
<wire x1="10.16" y1="12.7" x2="35.56" y2="12.7" width="0.8128" layer="16"/>
<wire x1="35.56" y1="12.7" x2="36.83" y2="13.97" width="0.8128" layer="16"/>
<wire x1="36.83" y1="13.97" x2="41.91" y2="13.97" width="0.8128" layer="16"/>
<wire x1="41.91" y1="13.97" x2="48.26" y2="20.32" width="0.8128" layer="16"/>
<wire x1="48.26" y1="20.32" x2="48.26" y2="21.59" width="0.8128" layer="16"/>
</signal>
<signal name="N$4">
<contactref element="V1" pad="9"/>
<contactref element="R4" pad="2"/>
<contactref element="C1" pad="1"/>
<wire x1="25.273" y1="23.749" x2="15.621" y2="23.749" width="0.8128" layer="16"/>
<wire x1="15.621" y1="23.749" x2="15.24" y2="24.13" width="0.8128" layer="16"/>
<wire x1="10.16" y1="20.32" x2="10.16" y2="24.13" width="0.8128" layer="16"/>
<wire x1="10.16" y1="24.13" x2="15.24" y2="24.13" width="0.8128" layer="16"/>
</signal>
<signal name="N$5">
<contactref element="R5" pad="1"/>
<contactref element="C2" pad="2"/>
<contactref element="R7" pad="1"/>
<wire x1="40.64" y1="8.89" x2="34.29" y2="5.08" width="0.8128" layer="16"/>
<wire x1="40.64" y1="8.89" x2="48.26" y2="16.51" width="0.8128" layer="16"/>
</signal>
<signal name="GND">
<contactref element="V1" pad="8"/>
<contactref element="R1" pad="1"/>
<contactref element="C4" pad="-"/>
<contactref element="R3" pad="2"/>
<contactref element="R5" pad="2"/>
<contactref element="C3" pad="-"/>
<polygon width="0.8128" layer="16" isolate="1.27">
<vertex x="57.15" y="59.69"/>
<vertex x="0" y="59.69"/>
<vertex x="0" y="0"/>
<vertex x="57.15" y="0"/>
</polygon>
<contactref element="C5" pad="2"/>
<contactref element="C6" pad="2"/>
<contactref element="AIN-" pad="1"/>
<contactref element="IN-" pad="1"/>
</signal>
<signal name="N$6">
<contactref element="R6" pad="2"/>
<contactref element="V1" pad="7"/>
<contactref element="R4" pad="1"/>
<contactref element="C3" pad="+"/>
<wire x1="22.476" y1="33.5" x2="16.03" y2="33.5" width="0.8128" layer="16"/>
<wire x1="16.03" y1="33.5" x2="15.24" y2="34.29" width="0.8128" layer="16"/>
<wire x1="21.59" y1="46.99" x2="17.78" y2="46.99" width="0.8128" layer="16"/>
<wire x1="17.78" y1="46.99" x2="15.24" y2="44.45" width="0.8128" layer="16"/>
<wire x1="21.59" y1="46.99" x2="22.476" y2="46.104" width="0.8128" layer="16"/>
<wire x1="22.476" y1="46.104" x2="22.476" y2="33.5" width="0.8128" layer="16"/>
</signal>
<signal name="N$7">
<contactref element="R6" pad="1"/>
<contactref element="OPT1" pad="1"/>
<contactref element="IN+" pad="1"/>
<wire x1="45.72" y1="52.07" x2="33.02" y2="52.07" width="0.8128" layer="16"/>
<wire x1="34.29" y1="46.99" x2="33.02" y2="48.26" width="0.8128" layer="16"/>
<wire x1="33.02" y1="52.07" x2="33.02" y2="48.26" width="0.8128" layer="16"/>
</signal>
<signal name="N$9">
<contactref element="V1" pad="5"/>
<contactref element="H1" pad="1"/>
<wire x1="37.196" y1="45.72" x2="30.48" y2="39.004" width="0.8128" layer="16"/>
<wire x1="40.64" y1="45.72" x2="37.196" y2="45.72" width="0.8128" layer="16"/>
</signal>
<signal name="N$11">
<contactref element="C2" pad="1"/>
<contactref element="AIN+" pad="1"/>
<wire x1="48.2346" y1="3.81" x2="48.26" y2="3.81" width="0.8128" layer="16"/>
<wire x1="48.26" y1="3.81" x2="48.26" y2="8.89" width="0.8128" layer="16"/>
</signal>
<signal name="N$14">
<contactref element="V1" pad="4"/>
<wire x1="35.738" y1="37.25" x2="35.738" y2="38.278" width="0.8128" layer="16"/>
<wire x1="35.738" y1="38.278" x2="38.09361875" y2="40.63361875" width="0.8128" layer="16"/>
<contactref element="H2" pad="1"/>
<wire x1="44.45" y1="40.64" x2="44.44361875" y2="40.63361875" width="0.8128" layer="16"/>
<wire x1="44.44361875" y1="40.63361875" x2="38.09361875" y2="40.63361875" width="0.8128" layer="16"/>
</signal>
<signal name="N$10">
<contactref element="V1" pad="1"/>
<contactref element="R7" pad="2"/>
<contactref element="C5" pad="1"/>
<wire x1="35.687" y1="23.622" x2="40.64" y2="23.622" width="0.8128" layer="16"/>
<wire x1="40.64" y1="23.622" x2="41.402" y2="23.622" width="0.8128" layer="16"/>
<wire x1="44.45" y1="25.4" x2="43.18" y2="25.4" width="0.8128" layer="16"/>
<wire x1="43.18" y1="25.4" x2="41.402" y2="23.622" width="0.8128" layer="16"/>
<wire x1="40.64" y1="19.05" x2="40.64" y2="23.622" width="0.8128" layer="16"/>
</signal>
<signal name="N$8">
<contactref element="V1" pad="6"/>
<contactref element="OPT2" pad="1"/>
<wire x1="25.476" y1="37.504" x2="25.476" y2="39.446" width="0.8128" layer="16"/>
<wire x1="25.476" y1="39.446" x2="26.67" y2="40.64" width="0.8128" layer="16"/>
<wire x1="26.67" y1="40.64" x2="26.67" y2="52.07" width="0.8128" layer="16"/>
</signal>
</signals>
<mfgpreviewcolors>
<mfgpreviewcolor name="soldermaskcolor" color="0xC8008000"/>
<mfgpreviewcolor name="silkscreencolor" color="0xFFFEFEFE"/>
<mfgpreviewcolor name="backgroundcolor" color="0xFF282828"/>
<mfgpreviewcolor name="coppercolor" color="0xFFFFBF00"/>
<mfgpreviewcolor name="substratecolor" color="0xFF786E46"/>
</mfgpreviewcolors>
</board>
</drawing>
<compatibility>
<note version="8.2" severity="warning">
Since Version 8.2, EAGLE supports online libraries. The ids
of those online libraries will not be understood (or retained)
with this version.
</note>
<note version="8.3" severity="warning">
Since Version 8.3, EAGLE supports URNs for individual library
assets (packages, symbols, and devices). The URNs of those assets
will not be understood (or retained) with this version.
</note>
<note version="8.3" severity="warning">
Since Version 8.3, EAGLE supports the association of 3D packages
with devices in libraries, schematics, and board files. Those 3D
packages will not be understood (or retained) with this version.
</note>
</compatibility>
</eagle>
